[gd_scene load_steps=12 format=2]

[ext_resource path="res://data/tileset/land.tres" type="TileSet" id=1]
[ext_resource path="res://data/tileset/under water.tres" type="TileSet" id=2]
[ext_resource path="res://assets/game/land/decorations/trees.png" type="Texture" id=3]
[ext_resource path="res://data/creatures/tiktaalik.tscn" type="PackedScene" id=4]
[ext_resource path="res://data/minds/player.gd" type="Script" id=5]
[ext_resource path="res://data/creatures/big tiktaalik.tscn" type="PackedScene" id=6]
[ext_resource path="res://assets/game/water/decorations/coral.png" type="Texture" id=7]
[ext_resource path="res://data/creatures/mate tiktaalik.tscn" type="PackedScene" id=8]
[ext_resource path="res://data/triggers/environment state changer.tscn" type="PackedScene" id=9]

[sub_resource type="RectangleShape2D" id=1]
extents = Vector2( 1208.29, 10 )

[sub_resource type="RectangleShape2D" id=2]
extents = Vector2( 10, 144.387 )

[node name="stage" type="Node2D"]

[node name="tiles stage" type="Node2D" parent="."]
__meta__ = {
"_edit_lock_": true
}

[node name="player barrier" type="StaticBody2D" parent="tiles stage"]
collision_layer = 2
collision_mask = 2

[node name="top" type="CollisionShape2D" parent="tiles stage/player barrier"]
position = Vector2( 1163.1, 6.84833 )
shape = SubResource( 1 )

[node name="bottom" type="CollisionShape2D" parent="tiles stage/player barrier"]
position = Vector2( 1169.88, 189.453 )
shape = SubResource( 1 )

[node name="left" type="CollisionShape2D" parent="tiles stage/player barrier"]
position = Vector2( -10.0406, 77.6151 )
shape = SubResource( 2 )

[node name="right" type="CollisionShape2D" parent="tiles stage/player barrier"]
position = Vector2( 2339.37, 117.277 )
shape = SubResource( 2 )

[node name="tile ground background" type="TileMap" parent="tiles stage"]
position = Vector2( 0, 4 )
tile_set = ExtResource( 1 )
cell_size = Vector2( 16, 16 )
cell_custom_transform = Transform2D( 1, 0, 0, 1, 0, 0 )
format = 1
tile_data = PoolIntArray( 196623, 1073741839, 0, 196624, 1073741839, 0, 196625, 1073741839, 0, 196626, 1073741839, 0, 196627, 1073741839, 0, 196628, 1073741839, 0, 196629, 1073741839, 0, 196630, 1073741839, 0, 196631, 1073741839, 0, 196632, 1073741839, 0, 196633, 1073741839, 0, 196634, 1073741839, 0, 196635, 1073741839, 0, 196636, 1073741839, 0, 196637, 1073741839, 0, 196638, 1073741839, 0, 196639, 1073741839, 0, 196640, 1073741839, 0, 196641, 1073741839, 0, 196642, 1073741839, 0, 196643, 1073741839, 0, 196644, 1073741839, 0, 196645, 1073741839, 0, 196646, 1073741839, 0, 196647, 1073741839, 0, 196648, 1073741839, 0, 196649, 1073741839, 0, 196650, 1073741839, 0, 196651, 1073741839, 0, 196652, 1073741839, 0, 196653, 1073741839, 0, 196654, 1073741839, 0, 196747, 1073741839, 0, 196748, 1073741839, 0, 196749, 1073741839, 0, 196750, 1073741839, 0, 196751, 1073741839, 0, 196752, 1073741839, 0, 196753, 1073741839, 0, 196754, 1073741839, 0, 196755, 1073741839, 0, 196756, 1073741839, 0, 196757, 1073741839, 0, 196758, 1073741839, 0, 196759, 1073741839, 0, 196760, 1073741839, 0, 196761, 1073741839, 0, 196762, 1073741839, 0, 196763, 1073741839, 0, 196764, 1073741839, 0, 196765, 1073741839, 0, 196766, 1073741839, 0, 196767, 1073741839, 0, 262158, 1073741839, 0, 262159, 1073741839, 0, 262160, 1073741839, 0, 262161, 1073741839, 0, 262162, 1073741839, 0, 262163, 1073741839, 0, 262164, 1073741839, 0, 262165, 1073741839, 0, 262166, 1073741839, 0, 262167, 1073741839, 0, 262168, 1073741839, 0, 262169, 1073741839, 0, 262170, 1073741839, 0, 262171, 1073741839, 0, 262172, 1073741839, 0, 262173, 1073741839, 0, 262174, 1073741839, 0, 262175, 1073741839, 0, 262176, 1073741839, 0, 262177, 1073741839, 0, 262178, 1073741839, 0, 262179, 1073741839, 0, 262180, 1073741839, 0, 262181, 1073741839, 0, 262182, 1073741839, 0, 262183, 1073741839, 0, 262184, 1073741839, 0, 262185, 1073741839, 0, 262186, 1073741839, 0, 262187, 1073741839, 0, 262188, 1073741839, 0, 262189, 1073741839, 0, 262190, 1073741839, 0, 262191, 1073741839, 0, 262192, 1073741839, 0, 262193, 1073741839, 0, 262194, 1073741839, 0, 262195, 1073741839, 0, 262196, 1073741839, 0, 262197, 1073741839, 0, 262198, 1073741839, 0, 262199, 1073741839, 0, 262200, 1073741839, 0, 262201, 1073741839, 0, 262202, 1073741839, 0, 262203, 1073741839, 0, 262204, 1073741839, 0, 262205, 1073741839, 0, 262206, 1073741839, 0, 262207, 1073741839, 0, 262208, 1073741839, 0, 262209, 1073741839, 0, 262210, 1073741839, 0, 262211, 1073741839, 0, 262212, 1073741839, 0, 262213, 1073741839, 0, 262214, 1073741839, 0, 262215, 1073741839, 0, 262216, 1073741839, 0, 262217, 1073741839, 0, 262218, 1073741839, 0, 262219, 1073741839, 0, 262220, 1073741839, 0, 262221, 1073741839, 0, 262222, 1073741839, 0, 262223, 1073741839, 0, 262224, 1073741839, 0, 262225, 1073741839, 0, 262226, 1073741839, 0, 262227, 1073741839, 0, 262228, 1073741839, 0, 262229, 1073741839, 0, 262230, 1073741839, 0, 262231, 1073741839, 0, 262232, 1073741839, 0, 262233, 1073741839, 0, 262234, 1073741839, 0, 262235, 1073741839, 0, 262236, 1073741839, 0, 262237, 1073741839, 0, 262238, 1073741839, 0, 262239, 1073741839, 0, 262240, 1073741839, 0, 262241, 1073741839, 0, 262242, 1073741839, 0, 262243, 1073741839, 0, 262244, 1073741839, 0, 262245, 1073741839, 0, 262246, 1073741839, 0, 262247, 1073741839, 0, 262248, 1073741839, 0, 262249, 1073741839, 0, 262250, 1073741839, 0, 262251, 1073741839, 0, 262252, 1073741839, 0, 262253, 1073741839, 0, 262254, 1073741839, 0, 262255, 1073741839, 0, 262256, 1073741839, 0, 262257, 1073741839, 0, 262258, 1073741839, 0, 262259, 1073741839, 0, 262260, 1073741839, 0, 262261, 1073741839, 0, 262262, 1073741839, 0, 262263, 1073741839, 0, 262264, 1073741839, 0, 262265, 1073741839, 0, 262266, 1073741839, 0, 262267, 1073741839, 0, 262268, 1073741839, 0, 262269, 1073741839, 0, 262270, 1073741839, 0, 262271, 1073741839, 0, 262272, 1073741839, 0, 262273, 1073741839, 0, 262274, 1073741839, 0, 262275, 1073741839, 0, 262276, 1073741839, 0, 262277, 1073741839, 0, 262278, 1073741839, 0, 262279, 1073741839, 0, 262280, 1073741839, 0, 262281, 1073741839, 0, 262282, 1073741839, 0, 262283, 1073741839, 0, 262284, 1073741839, 0, 262285, 1073741839, 0, 262286, 1073741839, 0, 262287, 1073741839, 0, 262288, 1073741839, 0, 262289, 1073741839, 0, 262290, 1073741839, 0, 262291, 1073741839, 0, 262292, 1073741839, 0, 262293, 1073741839, 0, 262294, 1073741839, 0, 262295, 1073741839, 0, 262296, 1073741839, 0, 262297, 1073741839, 0, 262298, 1073741839, 0, 262299, 1073741839, 0, 262300, 1073741839, 0, 262301, 1073741839, 0, 262302, 1073741839, 0, 262303, 1073741839, 0, 327694, 1073741839, 0, 327695, 1073741839, 0, 327696, 1073741839, 0, 327697, 1073741839, 0, 327698, 1073741839, 0, 327699, 1073741839, 0, 327700, 1073741839, 0, 327701, 1073741839, 0, 327702, 1073741839, 0, 327703, 1073741839, 0, 327704, 1073741839, 0, 327705, 1073741839, 0, 327706, 1073741839, 0, 327707, 1073741839, 0, 327708, 1073741839, 0, 327709, 1073741839, 0, 327710, 1073741839, 0, 327711, 1073741839, 0, 327712, 1073741839, 0, 327713, 1073741839, 0, 327714, 1073741839, 0, 327715, 1073741839, 0, 327716, 1073741839, 0, 327717, 1073741839, 0, 327718, 1073741839, 0, 327719, 1073741839, 0, 327720, 1073741839, 0, 327721, 1073741839, 0, 327722, 1073741839, 0, 327723, 1073741839, 0, 327724, 1073741839, 0, 327725, 1073741839, 0, 327726, 1073741839, 0, 327727, 1073741839, 0, 327728, 1073741839, 0, 327729, 1073741839, 0, 327730, 1073741839, 0, 327731, 1073741839, 0, 327732, 1073741839, 0, 327733, 1073741839, 0, 327734, 1073741839, 0, 327735, 1073741839, 0, 327736, 1073741839, 0, 327737, 1073741839, 0, 327738, 1073741839, 0, 327739, 1073741839, 0, 327740, 1073741839, 0, 327741, 1073741839, 0, 327742, 1073741839, 0, 327743, 1073741839, 0, 327744, 1073741839, 0, 327745, 1073741839, 0, 327746, 1073741839, 0, 327747, 1073741839, 0, 327748, 1073741839, 0, 327749, 1073741839, 0, 327750, 1073741839, 0, 327751, 1073741839, 0, 327752, 1073741839, 0, 327753, 1073741839, 0, 327754, 1073741839, 0, 327755, 1073741839, 0, 327756, 1073741839, 0, 327757, 1073741839, 0, 327758, 1073741839, 0, 327759, 1073741839, 0, 327760, 1073741839, 0, 327761, 1073741839, 0, 327762, 1073741839, 0, 327763, 1073741839, 0, 327764, 1073741839, 0, 327765, 1073741839, 0, 327766, 1073741839, 0, 327767, 1073741839, 0, 327768, 1073741839, 0, 327769, 1073741839, 0, 327770, 1073741839, 0, 327771, 1073741839, 0, 327772, 1073741839, 0, 327773, 1073741839, 0, 327774, 1073741839, 0, 327775, 1073741839, 0, 327776, 1073741839, 0, 327777, 1073741839, 0, 327778, 1073741839, 0, 327779, 1073741839, 0, 327780, 1073741839, 0, 327781, 1073741839, 0, 327782, 1073741839, 0, 327783, 1073741839, 0, 327784, 1073741839, 0, 327785, 1073741839, 0, 327786, 1073741839, 0, 327787, 1073741839, 0, 327788, 1073741839, 0, 327789, 1073741839, 0, 327790, 1073741839, 0, 327791, 1073741839, 0, 327792, 1073741839, 0, 327793, 1073741839, 0, 327794, 1073741839, 0, 327795, 1073741839, 0, 327796, 1073741839, 0, 327797, 1073741839, 0, 327798, 1073741839, 0, 327799, 1073741839, 0, 327800, 1073741839, 0, 327801, 1073741839, 0, 327802, 1073741839, 0, 327803, 1073741839, 0, 327804, 1073741839, 0, 327805, 1073741839, 0, 327806, 1073741839, 0, 327807, 1073741839, 0, 327808, 1073741839, 0, 327809, 1073741839, 0, 327810, 1073741839, 0, 327811, 1073741839, 0, 327812, 1073741839, 0, 327813, 1073741839, 0, 327814, 1073741839, 0, 327815, 1073741839, 0, 327816, 1073741839, 0, 327817, 1073741839, 0, 327818, 1073741839, 0, 327819, 1073741839, 0, 327820, 1073741839, 0, 327821, 1073741839, 0, 327822, 1073741839, 0, 327823, 1073741839, 0, 327824, 1073741839, 0, 327825, 1073741839, 0, 327826, 1073741839, 0, 327827, 1073741839, 0, 327828, 1073741839, 0, 327829, 1073741839, 0, 327830, 1073741839, 0, 327831, 1073741839, 0, 327832, 1073741839, 0, 327833, 1073741839, 0, 327834, 1073741839, 0, 327835, 1073741839, 0, 327836, 1073741839, 0, 327837, 1073741839, 0, 327838, 1073741839, 0, 327839, 1073741839, 0, 393225, 15, 0, 393226, 15, 0, 393227, 15, 0, 393228, 15, 0, 393229, 15, 0, 393230, 1073741839, 0, 393231, 1073741839, 0, 393232, 1073741839, 0, 393233, 1073741839, 0, 393234, 1073741839, 0, 393235, 1073741839, 0, 393236, 1073741839, 0, 393237, 1073741839, 0, 393238, 1073741839, 0, 393239, 1073741839, 0, 393240, 1073741839, 0, 393241, 1073741839, 0, 393242, 1073741839, 0, 393243, 1073741839, 0, 393244, 1073741839, 0, 393245, 1073741839, 0, 393246, 1073741839, 0, 393247, 1073741839, 0, 393248, 1073741839, 0, 393249, 1073741839, 0, 393250, 1073741839, 0, 393251, 1073741839, 0, 393252, 1073741839, 0, 393253, 1073741839, 0, 393254, 1073741839, 0, 393255, 1073741839, 0, 393256, 1073741839, 0, 393257, 1073741839, 0, 393258, 1073741839, 0, 393259, 1073741839, 0, 393260, 1073741839, 0, 393261, 1073741839, 0, 393262, 1073741839, 0, 393263, 1073741839, 0, 393264, 1073741839, 0, 393265, 1073741839, 0, 393266, 1073741839, 0, 393267, 1073741839, 0, 393268, 1073741839, 0, 393269, 1073741839, 0, 393270, 1073741839, 0, 393271, 1073741839, 0, 393272, 1073741839, 0, 393273, 1073741839, 0, 393274, 1073741839, 0, 393275, 1073741839, 0, 393276, 1073741839, 0, 393277, 1073741839, 0, 393278, 1073741839, 0, 393279, 1073741839, 0, 393280, 1073741839, 0, 393281, 1073741839, 0, 393282, 1073741839, 0, 393283, 1073741839, 0, 393284, 1073741839, 0, 393285, 1073741839, 0, 393286, 1073741839, 0, 393287, 1073741839, 0, 393288, 1073741839, 0, 393289, 1073741839, 0, 393290, 1073741839, 0, 393291, 1073741839, 0, 393292, 1073741839, 0, 393293, 1073741839, 0, 393294, 1073741839, 0, 393295, 1073741839, 0, 393296, 1073741839, 0, 393297, 1073741839, 0, 393298, 1073741839, 0, 393299, 1073741839, 0, 393300, 1073741839, 0, 393301, 1073741839, 0, 393302, 1073741839, 0, 393303, 1073741839, 0, 393304, 1073741839, 0, 393305, 1073741839, 0, 393306, 1073741839, 0, 393307, 1073741839, 0, 393308, 1073741839, 0, 393309, 1073741839, 0, 393310, 1073741839, 0, 393311, 1073741839, 0, 393312, 1073741839, 0, 393313, 1073741839, 0, 393314, 1073741839, 0, 393315, 1073741839, 0, 393316, 1073741839, 0, 393317, 1073741839, 0, 393318, 1073741839, 0, 393319, 1073741839, 0, 393320, 1073741839, 0, 393321, 1073741839, 0, 393322, 1073741839, 0, 393323, 1073741839, 0, 393324, 1073741839, 0, 393325, 1073741839, 0, 393326, 1073741839, 0, 393327, 1073741839, 0, 393328, 1073741839, 0, 393329, 1073741839, 0, 393330, 1073741839, 0, 393331, 1073741839, 0, 393332, 1073741839, 0, 393333, 1073741839, 0, 393334, 1073741839, 0, 393335, 1073741839, 0, 393336, 1073741839, 0, 393337, 1073741839, 0, 393338, 1073741839, 0, 393339, 1073741839, 0, 393340, 1073741839, 0, 393341, 1073741839, 0, 393342, 1073741839, 0, 393343, 1073741839, 0, 393344, 1073741839, 0, 393345, 1073741839, 0, 393346, 1073741839, 0, 393347, 1073741839, 0, 393348, 1073741839, 0, 393349, 1073741839, 0, 393350, 1073741839, 0, 393351, 1073741839, 0, 393352, 1073741839, 0, 393353, 1073741839, 0, 393354, 1073741839, 0, 393355, 1073741839, 0, 393356, 1073741839, 0, 393357, 1073741839, 0, 393358, 1073741839, 0, 393359, 1073741839, 0, 393360, 1073741839, 0, 393361, 1073741839, 0, 393362, 1073741839, 0, 393363, 1073741839, 0, 393364, 1073741839, 0, 393365, 1073741839, 0, 393366, 1073741839, 0, 393367, 1073741839, 0, 393368, 1073741839, 0, 393369, 1073741839, 0, 393370, 1073741839, 0, 393371, 1073741839, 0, 393372, 1073741839, 0, 393373, 1073741839, 0, 393374, 1073741839, 0, 393375, 1073741839, 0, 458766, 1073741839, 0, 458767, 1073741839, 0, 458768, 1073741839, 0, 458769, 1073741839, 0, 458770, 1073741839, 0, 458771, 1073741839, 0, 458772, 1073741839, 0, 458773, 1073741839, 0, 458774, 1073741839, 0, 458775, 1073741839, 0, 458776, 1073741839, 0, 458777, 1073741839, 0, 458778, 1073741839, 0, 458779, 1073741839, 0, 458780, 1073741839, 0, 458781, 1073741839, 0, 458782, 1073741839, 0, 458783, 1073741839, 0, 458784, 1073741839, 0, 458785, 1073741839, 0, 458786, 1073741839, 0, 458787, 1073741839, 0, 458788, 1073741839, 0, 458789, 1073741839, 0, 458790, 1073741839, 0, 458791, 1073741839, 0, 458792, 1073741839, 0, 458793, 1073741839, 0, 458794, 1073741839, 0, 458795, 1073741839, 0, 458796, 1073741839, 0, 458797, 1073741839, 0, 458798, 1073741839, 0, 458799, 1073741839, 0, 458800, 1073741839, 0, 458801, 1073741839, 0, 458802, 1073741839, 0, 458803, 1073741839, 0, 458804, 1073741839, 0, 458805, 1073741839, 0, 458806, 1073741839, 0, 458807, 1073741839, 0, 458808, 1073741839, 0, 458809, 1073741839, 0, 458810, 1073741839, 0, 458811, 1073741839, 0, 458812, 1073741839, 0, 458813, 1073741839, 0, 458814, 1073741839, 0, 458815, 1073741839, 0, 458816, 1073741839, 0, 458817, 1073741839, 0, 458818, 1073741839, 0, 458819, 1073741839, 0, 458820, 1073741839, 0, 458821, 1073741839, 0, 458822, 1073741839, 0, 458823, 1073741839, 0, 458824, 1073741839, 0, 458825, 1073741839, 0, 458826, 1073741839, 0, 458827, 1073741839, 0, 458828, 1073741839, 0, 458829, 1073741839, 0, 458830, 1073741839, 0, 458831, 1073741839, 0, 458832, 1073741839, 0, 458833, 1073741839, 0, 458834, 1073741839, 0, 458835, 1073741839, 0, 458836, 1073741839, 0, 458837, 1073741839, 0, 458838, 1073741839, 0, 458839, 1073741839, 0, 458840, 1073741839, 0, 458841, 1073741839, 0, 458842, 1073741839, 0, 458843, 1073741839, 0, 458844, 1073741839, 0, 458845, 1073741839, 0, 458846, 1073741839, 0, 458847, 1073741839, 0, 458848, 1073741839, 0, 458849, 1073741839, 0, 458850, 1073741839, 0, 458851, 1073741839, 0, 458852, 1073741839, 0, 458853, 1073741839, 0, 458854, 1073741839, 0, 458855, 1073741839, 0, 458856, 1073741839, 0, 458857, 1073741839, 0, 458858, 1073741839, 0, 458859, 1073741839, 0, 458860, 1073741839, 0, 458861, 1073741839, 0, 458862, 1073741839, 0, 458863, 1073741839, 0, 458864, 1073741839, 0, 458865, 1073741839, 0, 458866, 1073741839, 0, 458867, 1073741839, 0, 458868, 1073741839, 0, 458869, 1073741839, 0, 458870, 1073741839, 0, 458871, 1073741839, 0, 458872, 1073741839, 0, 458873, 1073741839, 0, 458874, 1073741839, 0, 458875, 1073741839, 0, 458876, 1073741839, 0, 458877, 1073741839, 0, 458878, 1073741839, 0, 458879, 1073741839, 0, 458880, 1073741839, 0, 458881, 1073741839, 0, 458882, 1073741839, 0, 458883, 1073741839, 0, 458884, 1073741839, 0, 458885, 1073741839, 0, 458886, 1073741839, 0, 458887, 1073741839, 0, 458888, 1073741839, 0, 458889, 1073741839, 0, 458890, 1073741839, 0, 458891, 1073741839, 0, 458892, 1073741839, 0, 458893, 1073741839, 0, 458894, 1073741839, 0, 458895, 1073741839, 0, 458896, 1073741839, 0, 458897, 1073741839, 0, 458898, 1073741839, 0, 458899, 1073741839, 0, 458900, 1073741839, 0, 458901, 1073741839, 0, 458902, 1073741839, 0, 458903, 1073741839, 0, 458904, 1073741839, 0, 458905, 1073741839, 0, 458906, 1073741839, 0, 458907, 1073741839, 0, 458908, 1073741839, 0, 458909, 1073741839, 0, 458910, 1073741839, 0, 458911, 1073741839, 0, 524302, 1073741839, 0, 524303, 1073741839, 0, 524304, 1073741839, 0, 524305, 1073741839, 0, 524306, 1073741839, 0, 524307, 1073741839, 0, 524308, 1073741839, 0, 524309, 1073741839, 0, 524310, 1073741839, 0, 524311, 1073741839, 0, 524312, 1073741839, 0, 524313, 1073741839, 0, 524314, 1073741839, 0, 524315, 1073741839, 0, 524316, 1073741839, 0, 524317, 1073741839, 0, 524318, 1073741839, 0, 524319, 1073741839, 0, 524320, 1073741839, 0, 524321, 1073741839, 0, 524322, 1073741839, 0, 524323, 1073741839, 0, 524324, 1073741839, 0, 524325, 1073741839, 0, 524326, 1073741839, 0, 524327, 1073741839, 0, 524328, 1073741839, 0, 524329, 1073741839, 0, 524330, 1073741839, 0, 524331, 1073741839, 0, 524332, 1073741839, 0, 524333, 1073741839, 0, 524334, 1073741839, 0, 524335, 1073741839, 0, 524336, 1073741839, 0, 524337, 1073741839, 0, 524338, 1073741839, 0, 524339, 1073741839, 0, 524340, 1073741839, 0, 524341, 1073741839, 0, 524342, 1073741839, 0, 524343, 1073741839, 0, 524344, 1073741839, 0, 524345, 1073741839, 0, 524346, 1073741839, 0, 524347, 1073741839, 0, 524348, 1073741839, 0, 524349, 1073741839, 0, 524350, 1073741839, 0, 524351, 1073741839, 0, 524352, 1073741839, 0, 524353, 1073741839, 0, 524354, 1073741839, 0, 524355, 1073741839, 0, 524356, 1073741839, 0, 524357, 1073741839, 0, 524358, 1073741839, 0, 524359, 1073741839, 0, 524360, 1073741839, 0, 524361, 1073741839, 0, 524362, 1073741839, 0, 524363, 1073741839, 0, 524364, 1073741839, 0, 524365, 1073741839, 0, 524366, 1073741839, 0, 524367, 1073741839, 0, 524368, 1073741839, 0, 524369, 1073741839, 0, 524370, 1073741839, 0, 524371, 1073741839, 0, 524372, 1073741839, 0, 524373, 1073741839, 0, 524374, 1073741839, 0, 524375, 1073741839, 0, 524376, 1073741839, 0, 524377, 1073741839, 0, 524378, 1073741839, 0, 524379, 1073741839, 0, 524380, 1073741839, 0, 524381, 1073741839, 0, 524382, 1073741839, 0, 524383, 1073741839, 0, 524384, 1073741839, 0, 524385, 1073741839, 0, 524386, 1073741839, 0, 524387, 1073741839, 0, 524388, 1073741839, 0, 524389, 1073741839, 0, 524390, 1073741839, 0, 524391, 1073741839, 0, 524392, 1073741839, 0, 524393, 1073741839, 0, 524394, 1073741839, 0, 524395, 1073741839, 0, 524396, 1073741839, 0, 524397, 1073741839, 0, 524398, 1073741839, 0, 524399, 1073741839, 0, 524400, 1073741839, 0, 524401, 1073741839, 0, 524402, 1073741839, 0, 524403, 1073741839, 0, 524404, 1073741839, 0, 524405, 1073741839, 0, 524406, 1073741839, 0, 524407, 1073741839, 0, 524408, 1073741839, 0, 524409, 1073741839, 0, 524410, 1073741839, 0, 524411, 1073741839, 0, 524412, 1073741839, 0, 524413, 1073741839, 0, 524414, 1073741839, 0, 524415, 1073741839, 0, 524416, 1073741839, 0, 524417, 1073741839, 0, 524418, 1073741839, 0, 524419, 1073741839, 0, 524420, 1073741839, 0, 524421, 1073741839, 0, 524422, 1073741839, 0, 524423, 1073741839, 0, 524424, 1073741839, 0, 524425, 1073741839, 0, 524426, 1073741839, 0, 524427, 1073741839, 0, 524428, 1073741839, 0, 524429, 1073741839, 0, 524430, 1073741839, 0, 524431, 1073741839, 0, 524432, 1073741839, 0, 524433, 1073741839, 0, 524434, 1073741839, 0, 524435, 1073741839, 0, 524436, 1073741839, 0, 524437, 1073741839, 0, 524438, 1073741839, 0, 524439, 1073741839, 0, 524440, 1073741839, 0, 524441, 1073741839, 0, 524442, 1073741839, 0, 524443, 1073741839, 0, 524444, 1073741839, 0, 524445, 1073741839, 0, 524446, 1073741839, 0, 524447, 1073741839, 0, 589838, 1073741839, 0, 589839, 1073741839, 0, 589840, 1073741839, 0, 589841, 1073741839, 0, 589842, 1073741839, 0, 589843, 1073741839, 0, 589844, 1073741839, 0, 589845, 1073741839, 0, 589846, 1073741839, 0, 589847, 1073741839, 0, 589848, 1073741839, 0, 589849, 1073741839, 0, 589850, 1073741839, 0, 589851, 1073741839, 0, 589852, 1073741839, 0, 589853, 1073741839, 0, 589854, 1073741839, 0, 589855, 1073741839, 0, 589856, 1073741839, 0, 589857, 1073741839, 0, 589858, 1073741839, 0, 589859, 1073741839, 0, 589860, 1073741839, 0, 589861, 1073741839, 0, 589862, 1073741839, 0, 589863, 1073741839, 0, 589864, 1073741839, 0, 589865, 1073741839, 0, 589866, 1073741839, 0, 589867, 1073741839, 0, 589868, 1073741839, 0, 589869, 1073741839, 0, 589870, 1073741839, 0, 589871, 1073741839, 0, 589872, 1073741839, 0, 589873, 1073741839, 0, 589874, 1073741839, 0, 589875, 1073741839, 0, 589876, 1073741839, 0, 589877, 1073741839, 0, 589878, 1073741839, 0, 589879, 1073741839, 0, 589880, 1073741839, 0, 589881, 1073741839, 0, 589882, 1073741839, 0, 589883, 1073741839, 0, 589884, 1073741839, 0, 589885, 1073741839, 0, 589886, 1073741839, 0, 589887, 1073741839, 0, 589888, 1073741839, 0, 589889, 1073741839, 0, 589890, 1073741839, 0, 589891, 1073741839, 0, 589892, 1073741839, 0, 589893, 1073741839, 0, 589894, 1073741839, 0, 589895, 1073741839, 0, 589896, 1073741839, 0, 589897, 1073741839, 0, 589898, 1073741839, 0, 589899, 1073741839, 0, 589900, 1073741839, 0, 589901, 1073741839, 0, 589902, 1073741839, 0, 589903, 1073741839, 0, 589904, 1073741839, 0, 589905, 1073741839, 0, 589906, 1073741839, 0, 589907, 1073741839, 0, 589908, 1073741839, 0, 589909, 1073741839, 0, 589910, 1073741839, 0, 589911, 1073741839, 0, 589912, 1073741839, 0, 589913, 1073741839, 0, 589914, 1073741839, 0, 589915, 1073741839, 0, 589916, 1073741839, 0, 589917, 1073741839, 0, 589918, 1073741839, 0, 589919, 1073741839, 0, 589920, 1073741839, 0, 589921, 1073741839, 0, 589922, 1073741839, 0, 589923, 1073741839, 0, 589924, 1073741839, 0, 589925, 1073741839, 0, 589926, 1073741839, 0, 589927, 1073741839, 0, 589928, 1073741839, 0, 589929, 1073741839, 0, 589930, 1073741839, 0, 589931, 1073741839, 0, 589932, 1073741839, 0, 589933, 1073741839, 0, 589934, 1073741839, 0, 589935, 1073741839, 0, 589936, 1073741839, 0, 589937, 1073741839, 0, 589938, 1073741839, 0, 589939, 1073741839, 0, 589940, 1073741839, 0, 589941, 1073741839, 0, 589942, 1073741839, 0, 589943, 1073741839, 0, 589944, 1073741839, 0, 589945, 1073741839, 0, 589946, 1073741839, 0, 589947, 1073741839, 0, 589948, 1073741839, 0, 589949, 1073741839, 0, 589950, 1073741839, 0, 589951, 1073741839, 0, 589952, 1073741839, 0, 589953, 1073741839, 0, 589954, 1073741839, 0, 589955, 1073741839, 0, 589956, 1073741839, 0, 589957, 1073741839, 0, 589958, 1073741839, 0, 589959, 1073741839, 0, 589960, 1073741839, 0, 589961, 1073741839, 0, 589962, 1073741839, 0, 589963, 1073741839, 0, 589964, 1073741839, 0, 589965, 1073741839, 0, 589966, 1073741839, 0, 589967, 1073741839, 0, 589968, 1073741839, 0, 589969, 1073741839, 0, 589970, 1073741839, 0, 589971, 1073741839, 0, 589972, 1073741839, 0, 589973, 1073741839, 0, 589974, 1073741839, 0, 589975, 1073741839, 0, 589976, 1073741839, 0, 589977, 1073741839, 0, 589978, 1073741839, 0, 589979, 1073741839, 0, 589980, 1073741839, 0, 589981, 1073741839, 0, 589982, 1073741839, 0, 589983, 1073741839, 0, 655374, 1073741839, 0, 655375, 1073741839, 0, 655376, 1073741839, 0, 655377, 1073741839, 0, 655378, 1073741839, 0, 655379, 1073741839, 0, 655380, 1073741839, 0, 655381, 1073741839, 0, 655382, 1073741839, 0, 655383, 1073741839, 0, 655384, 1073741839, 0, 655385, 1073741839, 0, 655386, 1073741839, 0, 655387, 1073741839, 0, 655388, 1073741839, 0, 655389, 1073741839, 0, 655390, 1073741839, 0, 655391, 1073741839, 0, 655392, 1073741839, 0, 655393, 1073741839, 0, 655394, 1073741839, 0, 655395, 1073741839, 0, 655396, 1073741839, 0, 655397, 1073741839, 0, 655398, 1073741839, 0, 655399, 1073741839, 0, 655400, 1073741839, 0, 655401, 1073741839, 0, 655402, 1073741839, 0, 655403, 1073741839, 0, 655404, 1073741839, 0, 655405, 1073741839, 0, 655406, 1073741839, 0, 655407, 1073741839, 0, 655408, 1073741839, 0, 655409, 1073741839, 0, 655410, 1073741839, 0, 655411, 1073741839, 0, 655412, 1073741839, 0, 655413, 1073741839, 0, 655414, 1073741839, 0, 655415, 1073741839, 0, 655416, 1073741839, 0, 655417, 1073741839, 0, 655418, 1073741839, 0, 655419, 1073741839, 0, 655420, 1073741839, 0, 655421, 1073741839, 0, 655422, 1073741839, 0, 655423, 1073741839, 0, 655424, 1073741839, 0, 655425, 1073741839, 0, 655426, 1073741839, 0, 655427, 1073741839, 0, 655428, 1073741839, 0, 655429, 1073741839, 0, 655430, 1073741839, 0, 655431, 1073741839, 0, 655432, 1073741839, 0, 655433, 1073741839, 0, 655434, 1073741839, 0, 655435, 1073741839, 0, 655436, 1073741839, 0, 655437, 1073741839, 0, 655438, 1073741839, 0, 655439, 1073741839, 0, 655440, 1073741839, 0, 655441, 1073741839, 0, 655442, 1073741839, 0, 655443, 1073741839, 0, 655444, 1073741839, 0, 655445, 1073741839, 0, 655446, 1073741839, 0, 655447, 1073741839, 0, 655448, 1073741839, 0, 655449, 1073741839, 0, 655450, 1073741839, 0, 655451, 1073741839, 0, 655452, 1073741839, 0, 655453, 1073741839, 0, 655454, 1073741839, 0, 655455, 1073741839, 0, 655456, 1073741839, 0, 655457, 1073741839, 0, 655458, 1073741839, 0, 655459, 1073741839, 0, 655460, 1073741839, 0, 655461, 1073741839, 0, 655462, 1073741839, 0, 655463, 1073741839, 0, 655464, 1073741839, 0, 655465, 1073741839, 0, 655466, 1073741839, 0, 655467, 1073741839, 0, 655468, 1073741839, 0, 655469, 1073741839, 0, 655470, 1073741839, 0, 655471, 1073741839, 0, 655472, 1073741839, 0, 655473, 1073741839, 0, 655474, 1073741839, 0, 655475, 1073741839, 0, 655476, 1073741839, 0, 655477, 1073741839, 0, 655478, 1073741839, 0, 655479, 1073741839, 0, 655480, 1073741839, 0, 655481, 1073741839, 0, 655482, 1073741839, 0, 655483, 1073741839, 0, 655484, 1073741839, 0, 655485, 1073741839, 0, 655486, 1073741839, 0, 655487, 1073741839, 0, 655488, 1073741839, 0, 655489, 1073741839, 0, 655490, 1073741839, 0, 655491, 1073741839, 0, 655492, 1073741839, 0, 655493, 1073741839, 0, 655494, 1073741839, 0, 655495, 1073741839, 0, 655496, 1073741839, 0, 655497, 1073741839, 0, 655498, 1073741839, 0, 655499, 1073741839, 0, 655500, 1073741839, 0, 655501, 1073741839, 0, 655502, 1073741839, 0, 655503, 1073741839, 0, 655504, 1073741839, 0, 655505, 1073741839, 0, 655506, 1073741839, 0, 655507, 1073741839, 0, 655508, 1073741839, 0 )
__meta__ = {
"_edit_lock_": true
}

[node name="tile background" type="TileMap" parent="tiles stage"]
position = Vector2( 0, 4 )
tile_set = ExtResource( 2 )
cell_size = Vector2( 16, 16 )
cell_custom_transform = Transform2D( 1, 0, 0, 1, 0, 0 )
format = 1
tile_data = PoolIntArray( -1, 1073741830, 0, -65536, 1073741830, 0, -65535, 1073741830, 0, -65534, 1073741830, 0, -65533, 1073741830, 0, -65532, 1073741830, 0, -65531, 1073741830, 0, -65530, 1073741830, 0, -65529, 1073741830, 0, -65528, 1073741830, 0, -65527, 1073741830, 0, -65526, 1073741830, 0, -65525, 1073741830, 0, -65524, 1073741830, 0, -65523, 1073741830, 0, -65522, 1073741830, 0, -65521, 1073741830, 0, -65520, 1073741830, 0, -65519, 1073741830, 0, -65518, 1073741830, 0, -65517, 1073741830, 0, -65516, 1073741830, 0, -65515, 1073741830, 0, -65514, 1073741830, 0, -65513, 1073741830, 0, -65512, 1073741830, 0, -65511, 1073741830, 0, -65510, 1073741830, 0, -65509, 1073741830, 0, -65508, 1073741830, 0, -65507, 1073741830, 0, -65506, 1073741830, 0, -65505, 1073741830, 0, -65504, 1073741830, 0, -65503, 1073741830, 0, -65502, 1073741830, 0, -65501, 1073741830, 0, -65500, 1073741830, 0, -65499, 1073741830, 0, -65498, 1073741830, 0, -65497, 1073741830, 0, -65496, 1073741830, 0, -65495, 1073741830, 0, -65494, 1073741830, 0, -65493, 1073741830, 0, -65492, 1073741830, 0, -65491, 1073741830, 0, -65490, 1073741830, 0, -65489, 1073741830, 0, -65488, 1073741830, 0, -65487, 1073741830, 0, -65486, 1073741830, 0, -65485, 1073741830, 0, -65484, 1073741830, 0, -65483, 1073741830, 0, -65482, 1073741830, 0, -65481, 1073741830, 0, -65480, 1073741830, 0, -65479, 1073741830, 0, -65478, 1073741830, 0, -65477, 1073741830, 0, -65476, 1073741830, 0, -65475, 1073741830, 0, -65474, 1073741830, 0, -65473, 1073741830, 0, -65472, 1073741830, 0, -65471, 1073741830, 0, -65470, 1073741830, 0, -65469, 1073741830, 0, -65468, 1073741830, 0, -65467, 1073741830, 0, -65466, 1073741830, 0, -65465, 1073741830, 0, -65464, 1073741830, 0, -65463, 1073741830, 0, -65462, 1073741830, 0, -65461, 1073741830, 0, -65460, 1073741830, 0, -65459, 1073741830, 0, -65458, 1073741830, 0, -65457, 1073741830, 0, -65456, 1073741830, 0, -65455, 1073741830, 0, -65454, 1073741830, 0, -65453, 1073741830, 0, -65452, 1073741830, 0, -65451, 1073741830, 0, -65450, 1073741830, 0, -65449, 1073741830, 0, -65448, 1073741830, 0, -65447, 1073741830, 0, -65446, 1073741830, 0, -65445, 1073741830, 0, -65444, 1073741830, 0, -65443, 1073741830, 0, -65442, 1073741830, 0, -65441, 1073741830, 0, -65440, 1073741830, 0, -65439, 1073741830, 0, -65438, 1073741830, 0, -65437, 1073741830, 0, -65436, 1073741830, 0, -65435, 1073741830, 0, -65434, 1073741830, 0, -65433, 1073741830, 0, -65432, 1073741830, 0, -65431, 1073741830, 0, -65430, 1073741830, 0, -65429, 1073741830, 0, -65428, 1073741830, 0, -65427, 1073741830, 0, -65426, 1073741830, 0, -65425, 1073741830, 0, -65424, 1073741830, 0, -65423, 1073741830, 0, -65422, 1073741830, 0, -65421, 1073741830, 0, -65420, 1073741830, 0, -65419, 1073741830, 0, -65418, 1073741830, 0, -65417, 1073741830, 0, -65416, 1073741830, 0, -65415, 1073741830, 0, -65414, 1073741830, 0, -65413, 1073741830, 0, -65412, 1073741830, 0, -65411, 1073741830, 0, -65410, 1073741830, 0, -65409, 1073741830, 0, -65408, 1073741830, 0, -65407, 1073741830, 0, -65406, 1073741830, 0, -65405, 1073741830, 0, -65404, 1073741830, 0, -65403, 1073741830, 0, -65402, 1073741830, 0, -65401, 1073741830, 0, -65400, 1073741830, 0, -65399, 1073741830, 0, -65398, 1073741830, 0, -65397, 1073741830, 0, -65396, 1073741830, 0, -65395, 1073741830, 0, -65394, 1073741830, 0, -65393, 1073741830, 0, -65392, 1073741830, 0, -65391, 1073741830, 0, -65390, 1073741830, 0, -65389, 1073741830, 0, -65388, 1073741830, 0, -65387, 1073741830, 0, -65386, 1073741830, 0, -65385, 1073741830, 0, -65384, 1073741830, 0, -65383, 1073741830, 0, -65382, 1073741830, 0, -65381, 1073741830, 0, -65380, 1073741830, 0, -65379, 1073741830, 0, -65378, 1073741830, 0, -65377, 1073741830, 0, 65535, 6, 0, 0, 7, 0, 1, 8, 0, 2, 6, 0, 3, 7, 0, 4, 8, 0, 5, 6, 0, 6, 7, 0, 7, 8, 0, 8, 6, 0, 9, 7, 0, 10, 8, 0, 11, 6, 0, 12, 7, 0, 13, 8, 0, 14, 6, 0, 15, 7, 0, 16, 8, 0, 17, 6, 0, 18, 7, 0, 19, 8, 0, 20, 6, 0, 21, 7, 0, 22, 8, 0, 23, 6, 0, 24, 7, 0, 25, 8, 0, 26, 6, 0, 27, 7, 0, 28, 8, 0, 29, 6, 0, 30, 7, 0, 31, 8, 0, 32, 6, 0, 33, 7, 0, 34, 8, 0, 35, 6, 0, 36, 7, 0, 37, 8, 0, 38, 6, 0, 39, 7, 0, 40, 8, 0, 41, 6, 0, 42, 7, 0, 43, 8, 0, 44, 6, 0, 45, 7, 0, 46, 8, 0, 47, 6, 0, 48, 7, 0, 49, 8, 0, 50, 6, 0, 51, 7, 0, 52, 8, 0, 53, 6, 0, 54, 7, 0, 55, 8, 0, 56, 6, 0, 57, 7, 0, 58, 8, 0, 59, 6, 0, 60, 7, 0, 61, 8, 0, 62, 6, 0, 63, 7, 0, 64, 8, 0, 65, 6, 0, 66, 7, 0, 67, 8, 0, 68, 6, 0, 69, 7, 0, 70, 8, 0, 71, 6, 0, 72, 7, 0, 73, 8, 0, 74, 6, 0, 75, 7, 0, 76, 8, 0, 77, 6, 0, 78, 7, 0, 79, 8, 0, 80, 6, 0, 81, 7, 0, 82, 8, 0, 83, 6, 0, 84, 7, 0, 85, 8, 0, 86, 6, 0, 87, 7, 0, 88, 8, 0, 89, 6, 0, 90, 7, 0, 91, 8, 0, 92, 6, 0, 93, 7, 0, 94, 8, 0, 95, 6, 0, 96, 7, 0, 97, 8, 0, 98, 6, 0, 99, 7, 0, 100, 8, 0, 101, 6, 0, 102, 7, 0, 103, 8, 0, 104, 6, 0, 105, 7, 0, 106, 8, 0, 107, 6, 0, 108, 7, 0, 109, 8, 0, 110, 6, 0, 111, 7, 0, 112, 8, 0, 113, 6, 0, 114, 7, 0, 115, 8, 0, 116, 6, 0, 117, 7, 0, 118, 8, 0, 119, 6, 0, 120, 7, 0, 121, 8, 0, 122, 6, 0, 123, 7, 0, 124, 8, 0, 125, 6, 0, 126, 7, 0, 127, 8, 0, 128, 6, 0, 129, 7, 0, 130, 8, 0, 131, 6, 0, 132, 7, 0, 133, 8, 0, 134, 6, 0, 135, 7, 0, 136, 8, 0, 137, 6, 0, 138, 7, 0, 139, 8, 0, 140, 6, 0, 141, 7, 0, 142, 8, 0, 143, 1073741833, 0, 144, 1073741833, 0, 145, 1073741833, 0, 146, 1073741833, 0, 147, 1073741833, 0, 148, 1073741833, 0, 149, 1073741833, 0, 150, 1073741833, 0, 151, 1073741833, 0, 152, 1073741833, 0, 153, 1073741833, 0, 154, 1073741833, 0, 155, 1073741833, 0, 156, 1073741833, 0, 157, 1073741833, 0, 158, 1073741833, 0, 159, 1073741833, 0, 131071, 1073741833, 0, 65536, 1073741833, 0, 65537, 1073741833, 0, 65538, 1073741833, 0, 65539, 1073741833, 0, 65540, 1073741833, 0, 65541, 1073741833, 0, 65542, 1073741833, 0, 65543, 1073741833, 0, 65544, 1073741833, 0, 65545, 1073741833, 0, 65546, 1073741833, 0, 65547, 1073741833, 0, 65548, 1073741833, 0, 65549, 1073741833, 0, 65550, 1073741833, 0, 65551, 1073741833, 0, 65552, 1073741833, 0, 65553, 1073741833, 0, 65554, 1073741833, 0, 65555, 1073741833, 0, 65556, 1073741833, 0, 65557, 1073741833, 0, 65558, 1073741833, 0, 65559, 1073741833, 0, 65560, 1073741833, 0, 65561, 1073741833, 0, 65562, 1073741833, 0, 65563, 1073741833, 0, 65564, 1073741833, 0, 65565, 1073741833, 0, 65566, 1073741833, 0, 65567, 1073741833, 0, 65568, 1073741833, 0, 65569, 1073741833, 0, 65570, 1073741833, 0, 65571, 1073741833, 0, 65572, 1073741833, 0, 65573, 1073741833, 0, 65574, 1073741833, 0, 65575, 1073741833, 0, 65576, 1073741833, 0, 65577, 1073741833, 0, 65578, 1073741833, 0, 65579, 1073741833, 0, 65580, 1073741833, 0, 65581, 1073741833, 0, 65582, 1073741833, 0, 65583, 1073741833, 0, 65584, 1073741833, 0, 65585, 1073741833, 0, 65586, 1073741833, 0, 65587, 1073741833, 0, 65588, 1073741833, 0, 65589, 1073741833, 0, 65590, 1073741833, 0, 65591, 1073741833, 0, 65592, 1073741833, 0, 65593, 1073741833, 0, 65594, 1073741833, 0, 65595, 1073741833, 0, 65596, 1073741833, 0, 65597, 1073741833, 0, 65598, 1073741833, 0, 65599, 1073741833, 0, 65600, 1073741833, 0, 65601, 1073741833, 0, 65602, 1073741833, 0, 65603, 1073741833, 0, 65604, 1073741833, 0, 65605, 1073741833, 0, 65606, 1073741833, 0, 65607, 1073741833, 0, 65608, 1073741833, 0, 65609, 1073741833, 0, 65610, 1073741833, 0, 65611, 1073741833, 0, 65612, 1073741833, 0, 65613, 1073741833, 0, 65614, 1073741833, 0, 65615, 1073741833, 0, 65616, 1073741833, 0, 65617, 1073741833, 0, 65618, 1073741833, 0, 65619, 1073741833, 0, 65620, 1073741833, 0, 65621, 1073741833, 0, 65622, 1073741833, 0, 65623, 1073741833, 0, 65624, 1073741833, 0, 65625, 1073741833, 0, 65626, 1073741833, 0, 65627, 1073741833, 0, 65628, 1073741833, 0, 65629, 1073741833, 0, 65630, 1073741833, 0, 65631, 1073741833, 0, 65632, 1073741833, 0, 65633, 1073741833, 0, 65634, 1073741833, 0, 65635, 1073741833, 0, 65636, 1073741833, 0, 65637, 1073741833, 0, 65638, 1073741833, 0, 65639, 1073741833, 0, 65640, 1073741833, 0, 65641, 1073741833, 0, 65642, 1073741833, 0, 65643, 1073741833, 0, 65644, 1073741833, 0, 65645, 1073741833, 0, 65646, 1073741833, 0, 65647, 1073741833, 0, 65648, 1073741833, 0, 65649, 1073741833, 0, 65650, 1073741833, 0, 65651, 1073741833, 0, 65652, 1073741833, 0, 65653, 1073741833, 0, 65654, 1073741833, 0, 65655, 1073741833, 0, 65656, 1073741833, 0, 65657, 1073741833, 0, 65658, 1073741833, 0, 65659, 1073741833, 0, 65660, 1073741833, 0, 65661, 1073741833, 0, 65662, 1073741833, 0, 65663, 1073741833, 0, 65664, 1073741833, 0, 65665, 1073741833, 0, 65666, 1073741833, 0, 65667, 1073741833, 0, 65668, 1073741833, 0, 65669, 1073741833, 0, 65670, 1073741833, 0, 65671, 1073741833, 0, 65672, 1073741833, 0, 65673, 1073741833, 0, 65674, 1073741833, 0, 65675, 1073741833, 0, 65676, 1073741833, 0, 65677, 1073741833, 0, 65678, 1073741833, 0, 65679, 1073741833, 0, 65680, 1073741833, 0, 65681, 1073741833, 0, 65682, 1073741833, 0, 65683, 1073741833, 0, 65684, 1073741833, 0, 65686, 1073741833, 0, 65687, 1073741833, 0, 65688, 1073741833, 0, 65689, 1073741833, 0, 65690, 1073741833, 0, 65691, 1073741833, 0, 65692, 1073741833, 0, 65693, 1073741833, 0, 65694, 1073741833, 0, 65695, 1073741833, 0, 196607, 1073741833, 0, 131072, 1073741833, 0, 131073, 1073741833, 0, 131074, 1073741833, 0, 131075, 1073741833, 0, 131076, 1073741833, 0, 131077, 1073741833, 0, 131078, 1073741833, 0, 131079, 1073741833, 0, 131080, 1073741833, 0, 131081, 1073741833, 0, 131082, 1073741833, 0, 131083, 1073741833, 0, 131084, 1073741833, 0, 131085, 1073741833, 0, 131086, 1073741833, 0, 131087, 1073741833, 0, 131088, 1073741833, 0, 131089, 1073741833, 0, 131090, 1073741833, 0, 131091, 1073741833, 0, 131092, 1073741833, 0, 131093, 1073741833, 0, 131094, 1073741833, 0, 131095, 1073741833, 0, 131096, 1073741833, 0, 131097, 1073741833, 0, 131098, 1073741833, 0, 131099, 1073741833, 0, 131100, 1073741833, 0, 131101, 1073741833, 0, 131102, 1073741833, 0, 131103, 1073741833, 0, 131104, 1073741833, 0, 131105, 1073741833, 0, 131106, 1073741833, 0, 131107, 1073741833, 0, 131108, 1073741833, 0, 131109, 1073741833, 0, 131110, 1073741833, 0, 131111, 1073741833, 0, 131112, 1073741833, 0, 131113, 1073741833, 0, 131114, 1073741833, 0, 131115, 1073741833, 0, 131116, 1073741833, 0, 131117, 1073741833, 0, 131118, 1073741833, 0, 131119, 1073741833, 0, 131120, 1073741833, 0, 131121, 1073741833, 0, 131122, 1073741833, 0, 131123, 1073741833, 0, 131124, 1073741833, 0, 131125, 1073741833, 0, 131126, 1073741833, 0, 131127, 1073741833, 0, 131128, 1073741833, 0, 131129, 1073741833, 0, 131130, 1073741833, 0, 131131, 1073741833, 0, 131132, 1073741833, 0, 131133, 1073741833, 0, 131134, 1073741833, 0, 131135, 1073741833, 0, 131136, 1073741833, 0, 131137, 1073741833, 0, 131138, 1073741833, 0, 131139, 1073741833, 0, 131140, 1073741833, 0, 131141, 1073741833, 0, 131142, 1073741833, 0, 131143, 1073741833, 0, 131144, 1073741833, 0, 131145, 1073741833, 0, 131146, 1073741833, 0, 131147, 1073741833, 0, 131148, 1073741833, 0, 131149, 1073741833, 0, 131150, 1073741833, 0, 131151, 1073741833, 0, 131152, 1073741833, 0, 131153, 1073741833, 0, 131154, 1073741833, 0, 131155, 1073741833, 0, 131156, 1073741833, 0, 131157, 1073741833, 0, 131158, 1073741833, 0, 131159, 1073741833, 0, 131160, 1073741833, 0, 131161, 1073741833, 0, 131162, 1073741833, 0, 131163, 1073741833, 0, 131164, 1073741833, 0, 131165, 1073741833, 0, 131166, 1073741833, 0, 131167, 1073741833, 0, 131168, 1073741833, 0, 131169, 1073741833, 0, 131170, 1073741833, 0, 131171, 1073741833, 0, 131172, 1073741833, 0, 131173, 1073741833, 0, 131174, 1073741833, 0, 131175, 1073741833, 0, 131176, 1073741833, 0, 131177, 1073741833, 0, 131178, 1073741833, 0, 131179, 1073741833, 0, 131180, 1073741833, 0, 131181, 1073741833, 0, 131182, 1073741833, 0, 131183, 1073741833, 0, 131184, 1073741833, 0, 131185, 1073741833, 0, 131186, 1073741833, 0, 131187, 1073741833, 0, 131188, 1073741833, 0, 131189, 1073741833, 0, 131190, 1073741833, 0, 131191, 1073741833, 0, 131192, 1073741833, 0, 131193, 1073741833, 0, 131194, 1073741833, 0, 131195, 1073741833, 0, 131196, 1073741833, 0, 131197, 1073741833, 0, 131198, 1073741833, 0, 131199, 1073741833, 0, 131200, 1073741833, 0, 131201, 1073741833, 0, 131202, 1073741833, 0, 131203, 1073741833, 0, 131204, 1073741833, 0, 131205, 1073741833, 0, 131206, 1073741833, 0, 131207, 1073741833, 0, 131208, 1073741833, 0, 131209, 1073741833, 0, 131210, 1073741833, 0, 131211, 1073741833, 0, 131212, 1073741833, 0, 131213, 1073741833, 0, 131214, 1073741833, 0, 131215, 1073741833, 0, 131216, 1073741833, 0, 131217, 1073741833, 0, 131218, 1073741833, 0, 131219, 1073741833, 0, 131220, 1073741833, 0, 131221, 1073741833, 0, 131222, 1073741833, 0, 131223, 1073741833, 0, 131224, 1073741833, 0, 131225, 1073741833, 0, 131226, 1073741833, 0, 131227, 1073741833, 0, 131228, 1073741833, 0, 131229, 1073741833, 0, 131230, 1073741833, 0, 131231, 1073741833, 0, 262143, 1073741833, 0, 196608, 1073741833, 0, 196609, 1073741833, 0, 196610, 1073741833, 0, 196611, 1073741833, 0, 196612, 1073741833, 0, 196613, 1073741833, 0, 196614, 1073741833, 0, 196615, 1073741833, 0, 196616, 1073741833, 0, 196617, 1073741833, 0, 196618, 1073741833, 0, 196619, 1073741833, 0, 196620, 1073741833, 0, 196621, 1073741833, 0, 196622, 1073741833, 0, 196623, 1073741833, 0, 196624, 1073741833, 0, 196625, 1073741833, 0, 196626, 1073741833, 0, 196627, 1073741833, 0, 196628, 1073741833, 0, 196629, 1073741833, 0, 196630, 1073741833, 0, 196631, 1073741833, 0, 196632, 1073741833, 0, 196633, 1073741833, 0, 196634, 1073741833, 0, 196635, 1073741833, 0, 196636, 1073741833, 0, 196637, 1073741833, 0, 196638, 1073741833, 0, 196639, 1073741833, 0, 196640, 1073741833, 0, 196641, 1073741833, 0, 196642, 1073741833, 0, 196643, 1073741833, 0, 196644, 1073741833, 0, 196645, 1073741833, 0, 196646, 1073741833, 0, 196647, 1073741833, 0, 196648, 1073741833, 0, 196649, 1073741833, 0, 196650, 1073741833, 0, 196651, 1073741833, 0, 196652, 1073741833, 0, 196653, 1073741833, 0, 196654, 1073741833, 0, 196655, 1073741833, 0, 196656, 1073741833, 0, 196657, 1073741833, 0, 196658, 1073741833, 0, 196659, 1073741833, 0, 196660, 1073741833, 0, 196661, 1073741833, 0, 196662, 1073741833, 0, 196663, 1073741833, 0, 196664, 1073741833, 0, 196665, 1073741833, 0, 196666, 1073741833, 0, 196667, 1073741833, 0, 196668, 1073741833, 0, 196669, 1073741833, 0, 196670, 1073741833, 0, 196671, 1073741833, 0, 196672, 1073741833, 0, 196673, 1073741833, 0, 196674, 1073741833, 0, 196675, 1073741833, 0, 196676, 1073741833, 0, 196677, 1073741833, 0, 196678, 1073741833, 0, 196679, 1073741833, 0, 196680, 1073741833, 0, 196681, 1073741833, 0, 196682, 1073741833, 0, 196683, 1073741833, 0, 196684, 1073741833, 0, 196685, 1073741833, 0, 196686, 1073741833, 0, 196687, 1073741833, 0, 196688, 1073741833, 0, 196689, 1073741833, 0, 196690, 1073741833, 0, 196691, 1073741833, 0, 196692, 1073741833, 0, 196693, 1073741833, 0, 196694, 1073741833, 0, 196695, 1073741833, 0, 196696, 1073741833, 0, 196697, 1073741833, 0, 196698, 1073741833, 0, 196699, 1073741833, 0, 196700, 1073741833, 0, 196701, 1073741833, 0, 196702, 1073741833, 0, 196703, 1073741833, 0, 196704, 1073741833, 0, 196705, 1073741833, 0, 196706, 1073741833, 0, 196707, 1073741833, 0, 196708, 1073741833, 0, 196709, 1073741833, 0, 196710, 1073741833, 0, 196711, 1073741833, 0, 196712, 1073741833, 0, 196713, 1073741833, 0, 196714, 1073741833, 0, 196715, 1073741833, 0, 196716, 1073741833, 0, 196717, 1073741833, 0, 196718, 1073741833, 0, 196719, 1073741833, 0, 196720, 1073741833, 0, 196721, 1073741833, 0, 196722, 1073741833, 0, 196723, 1073741833, 0, 196724, 1073741833, 0, 196725, 1073741833, 0, 196726, 1073741833, 0, 196727, 1073741833, 0, 196728, 1073741833, 0, 196729, 1073741833, 0, 196730, 1073741833, 0, 196731, 1073741833, 0, 196732, 1073741833, 0, 196733, 1073741833, 0, 196734, 1073741833, 0, 196735, 1073741833, 0, 196736, 1073741833, 0, 196737, 1073741833, 0, 196738, 1073741833, 0, 196739, 1073741833, 0, 196740, 1073741833, 0, 196741, 1073741833, 0, 196742, 1073741833, 0, 196743, 1073741833, 0, 196744, 1073741833, 0, 196745, 1073741833, 0, 327679, 1073741833, 0, 262144, 1073741833, 0, 262145, 1073741833, 0, 262146, 1073741833, 0, 262147, 1073741833, 0, 262148, 1073741833, 0, 262149, 1073741833, 0, 262150, 1073741833, 0, 262151, 1073741833, 0, 262152, 1073741833, 0, 262153, 1073741833, 0, 262154, 1073741833, 0, 393215, 1073741833, 0, 327680, 1073741833, 0, 327681, 1073741833, 0, 327682, 1073741833, 0, 327683, 1073741833, 0, 327684, 1073741833, 0, 327685, 1073741833, 0, 327686, 1073741833, 0, 327687, 1073741833, 0, 327688, 1073741833, 0, 327689, 1073741833, 0, 458751, 1073741833, 0, 393216, 1073741833, 0, 393217, 1073741833, 0, 393218, 1073741833, 0, 393219, 1073741833, 0, 393220, 1073741833, 0, 393221, 1073741833, 0, 393222, 1073741833, 0, 393223, 1073741833, 0, 393224, 1073741833, 0, 393225, 1073741833, 0, 393226, 1073741826, 0, 524287, 1610612741, 0, 458752, 1073741834, 0, 458753, 1610612741, 0, 458754, 1073741834, 0, 458755, 1610612741, 0, 458756, 1073741834, 0, 458757, 1610612741, 0, 458758, 1073741834, 0, 458763, 1073741826, 0, 524303, 1073741826, 0, 589840, 1073741826, 0 )
__meta__ = {
"_edit_lock_": true
}

[node name="decorations" type="Node2D" parent="tiles stage"]

[node name="tree 1 2" type="Sprite" parent="tiles stage/decorations"]
position = Vector2( 550.321, 45.4312 )
texture = ExtResource( 3 )
region_enabled = true
region_rect = Rect2( 0, 0, 64, 96 )

[node name="tree 1 3" type="Sprite" parent="tiles stage/decorations"]
position = Vector2( 504.833, 44.2649 )
texture = ExtResource( 3 )
region_enabled = true
region_rect = Rect2( 0, 0, 64, 96 )

[node name="tree 1 14" type="Sprite" parent="tiles stage/decorations"]
position = Vector2( 471.009, 46.5976 )
texture = ExtResource( 3 )
region_enabled = true
region_rect = Rect2( 0, 0, 64, 96 )

[node name="tree 1 15" type="Sprite" parent="tiles stage/decorations"]
position = Vector2( 439.517, 46.5976 )
texture = ExtResource( 3 )
region_enabled = true
region_rect = Rect2( 0, 0, 64, 96 )

[node name="tree 1 16" type="Sprite" parent="tiles stage/decorations"]
position = Vector2( 380.034, 47.7639 )
texture = ExtResource( 3 )
region_enabled = true
region_rect = Rect2( 0, 0, 64, 96 )

[node name="tree 1 17" type="Sprite" parent="tiles stage/decorations"]
position = Vector2( 406.86, 47.7639 )
texture = ExtResource( 3 )
region_enabled = true
region_rect = Rect2( 0, 0, 64, 96 )

[node name="tree 1 18" type="Sprite" parent="tiles stage/decorations"]
position = Vector2( 346.209, 45.4312 )
texture = ExtResource( 3 )
region_enabled = true
region_rect = Rect2( 0, 0, 64, 96 )

[node name="tree 1 19" type="Sprite" parent="tiles stage/decorations"]
position = Vector2( 540.99, 45.4312 )
texture = ExtResource( 3 )
region_enabled = true
region_rect = Rect2( 0, 0, 64, 96 )

[node name="tree 1 20" type="Sprite" parent="tiles stage/decorations"]
position = Vector2( 570.149, 43.0985 )
texture = ExtResource( 3 )
region_enabled = true
region_rect = Rect2( 0, 0, 64, 96 )

[node name="tree 1 21" type="Sprite" parent="tiles stage/decorations"]
position = Vector2( 598.141, 45.4312 )
texture = ExtResource( 3 )
region_enabled = true
region_rect = Rect2( 0, 0, 64, 96 )

[node name="tree 1 22" type="Sprite" parent="tiles stage/decorations"]
position = Vector2( 628.466, 45.4312 )
texture = ExtResource( 3 )
region_enabled = true
region_rect = Rect2( 0, 0, 64, 96 )

[node name="tree 3 32" type="Sprite" parent="tiles stage/decorations"]
position = Vector2( 381.714, 89.7322 )
texture = ExtResource( 3 )
flip_h = true
region_enabled = true
region_rect = Rect2( 142, 0, 68, 96 )

[node name="tree 1 1" type="Sprite" parent="tiles stage/decorations"]
position = Vector2( 325.215, 46.5976 )
texture = ExtResource( 3 )
region_enabled = true
region_rect = Rect2( 0, 0, 64, 96 )

[node name="tree 2 1" type="Sprite" parent="tiles stage/decorations"]
position = Vector2( 356.328, 46.3256 )
texture = ExtResource( 3 )
region_enabled = true
region_rect = Rect2( 64, 0, 64, 96 )

[node name="tree 3 22" type="Sprite" parent="tiles stage/decorations"]
position = Vector2( 317.187, 79.808 )
texture = ExtResource( 3 )
region_enabled = true
region_rect = Rect2( 142, 0, 68, 96 )

[node name="tree 3 23" type="Sprite" parent="tiles stage/decorations"]
position = Vector2( 371.352, 76.7129 )
texture = ExtResource( 3 )
region_enabled = true
region_rect = Rect2( 142, 0, 68, 96 )

[node name="tree 3 24" type="Sprite" parent="tiles stage/decorations"]
position = Vector2( 477.36, 120.045 )
texture = ExtResource( 3 )
region_enabled = true
region_rect = Rect2( 142, 0, 68, 96 )

[node name="tree 3 25" type="Sprite" parent="tiles stage/decorations"]
position = Vector2( 392.244, 123.914 )
texture = ExtResource( 3 )
region_enabled = true
region_rect = Rect2( 142, 0, 68, 96 )

[node name="tree 3 26" type="Sprite" parent="tiles stage/decorations"]
position = Vector2( 417.779, 151.77 )
texture = ExtResource( 3 )
region_enabled = true
region_rect = Rect2( 142, 0, 68, 96 )

[node name="tree 3 1" type="Sprite" parent="tiles stage/decorations"]
position = Vector2( 626.069, -78.8922 )
texture = ExtResource( 3 )
region_enabled = true
region_rect = Rect2( 142, 0, 68, 96 )

[node name="tree 3 9" type="Sprite" parent="tiles stage/decorations"]
position = Vector2( 1372.44, -78.8921 )
texture = ExtResource( 3 )
region_enabled = true
region_rect = Rect2( 142, 0, 68, 96 )

[node name="tree 3 10" type="Sprite" parent="tiles stage/decorations"]
position = Vector2( 1811.96, -81.5996 )
texture = ExtResource( 3 )
region_enabled = true
region_rect = Rect2( 142, 0, 68, 96 )

[node name="tree 3 11" type="Sprite" parent="tiles stage/decorations"]
position = Vector2( 2052.93, -77.9896 )
texture = ExtResource( 3 )
region_enabled = true
region_rect = Rect2( 142, 0, 68, 96 )

[node name="tree 3 12" type="Sprite" parent="tiles stage/decorations"]
position = Vector2( 2140.47, -82.5021 )
texture = ExtResource( 3 )
region_enabled = true
region_rect = Rect2( 142, 0, 68, 96 )

[node name="tree 4 1" type="Sprite" parent="tiles stage/decorations"]
position = Vector2( 630, 48 )
texture = ExtResource( 3 )
region_enabled = true
region_rect = Rect2( 216, 0, 64, 96 )

[node name="tree 1 26" type="Sprite" parent="tiles stage/decorations"]
position = Vector2( 2444.51, 49.1159 )
texture = ExtResource( 3 )
region_enabled = true
region_rect = Rect2( 0, 0, 64, 96 )

[node name="tree 1 33" type="Sprite" parent="tiles stage/decorations"]
position = Vector2( 2532.05, 44.6034 )
texture = ExtResource( 3 )
region_enabled = true
region_rect = Rect2( 0, 0, 64, 96 )

[node name="tree 1 34" type="Sprite" parent="tiles stage/decorations"]
position = Vector2( 2471.04, 43.8683 )
texture = ExtResource( 3 )
region_enabled = true
region_rect = Rect2( 0, 0, 64, 96 )

[node name="tree 1 4" type="Sprite" parent="tiles stage/decorations"]
position = Vector2( 900.773, 47.4783 )
texture = ExtResource( 3 )
region_enabled = true
region_rect = Rect2( 0, 0, 64, 96 )

[node name="tree 1 5" type="Sprite" parent="tiles stage/decorations"]
position = Vector2( 695, 48 )
texture = ExtResource( 3 )
region_enabled = true
region_rect = Rect2( 0, 0, 64, 96 )

[node name="tree 1 6" type="Sprite" parent="tiles stage/decorations"]
position = Vector2( 523, 47 )
texture = ExtResource( 3 )
region_enabled = true
region_rect = Rect2( 0, 0, 64, 96 )

[node name="tree 1 7" type="Sprite" parent="tiles stage/decorations"]
position = Vector2( 422.313, 48.735 )
texture = ExtResource( 3 )
region_enabled = true
region_rect = Rect2( 0, 0, 64, 96 )

[node name="tree 3 30" type="Sprite" parent="tiles stage/decorations"]
position = Vector2( 360.822, 111.398 )
texture = ExtResource( 3 )
flip_h = true
region_enabled = true
region_rect = Rect2( 142, 0, 68, 96 )

[node name="tree 3 31" type="Sprite" parent="tiles stage/decorations"]
position = Vector2( 444.39, 131.516 )
texture = ExtResource( 3 )
flip_h = true
region_enabled = true
region_rect = Rect2( 142, 0, 68, 96 )

[node name="tree 1 8" type="Sprite" parent="tiles stage/decorations"]
position = Vector2( 392, 47 )
texture = ExtResource( 3 )
region_enabled = true
region_rect = Rect2( 0, 0, 64, 96 )

[node name="tree 2 2" type="Sprite" parent="tiles stage/decorations"]
position = Vector2( 863.654, 47.4565 )
texture = ExtResource( 3 )
region_enabled = true
region_rect = Rect2( 64, 0, 64, 96 )

[node name="tree 2 3" type="Sprite" parent="tiles stage/decorations"]
position = Vector2( 729.867, 46.7214 )
texture = ExtResource( 3 )
region_enabled = true
region_rect = Rect2( 64, 0, 64, 96 )

[node name="tree 2 4" type="Sprite" parent="tiles stage/decorations"]
position = Vector2( 796.76, 46.7214 )
texture = ExtResource( 3 )
region_enabled = true
region_rect = Rect2( 64, 0, 64, 96 )

[node name="tree 2 5" type="Sprite" parent="tiles stage/decorations"]
position = Vector2( 654, 48 )
texture = ExtResource( 3 )
region_enabled = true
region_rect = Rect2( 64, 0, 64, 96 )

[node name="tree 2 6" type="Sprite" parent="tiles stage/decorations"]
position = Vector2( 556.556, 44.7797 )
texture = ExtResource( 3 )
region_enabled = true
region_rect = Rect2( 64, 0, 64, 96 )

[node name="tree 2 7" type="Sprite" parent="tiles stage/decorations"]
position = Vector2( 477, 47 )
texture = ExtResource( 3 )
region_enabled = true
region_rect = Rect2( 64, 0, 64, 96 )

[node name="tree 2 8" type="Sprite" parent="tiles stage/decorations"]
position = Vector2( 446.059, 43.552 )
texture = ExtResource( 3 )
region_enabled = true
region_rect = Rect2( 64, 0, 64, 96 )

[node name="tree 4 26" type="Sprite" parent="tiles stage/decorations"]
position = Vector2( 2478.91, 47.8289 )
texture = ExtResource( 3 )
region_enabled = true
region_rect = Rect2( 216, 0, 64, 96 )

[node name="tree 4 33" type="Sprite" parent="tiles stage/decorations"]
position = Vector2( 2566.46, 43.3164 )
texture = ExtResource( 3 )
region_enabled = true
region_rect = Rect2( 216, 0, 64, 96 )

[node name="tree 4 24" type="Sprite" parent="tiles stage/decorations"]
position = Vector2( 2420.84, 48.564 )
texture = ExtResource( 3 )
region_enabled = true
region_rect = Rect2( 216, 0, 64, 96 )

[node name="tree 4 31" type="Sprite" parent="tiles stage/decorations"]
position = Vector2( 2508.38, 44.0515 )
texture = ExtResource( 3 )
region_enabled = true
region_rect = Rect2( 216, 0, 64, 96 )

[node name="tree 4 30" type="Sprite" parent="tiles stage/decorations"]
position = Vector2( 2452.52, 44.7866 )
texture = ExtResource( 3 )
region_enabled = true
region_rect = Rect2( 216, 0, 64, 96 )

[node name="tree 4 6" type="Sprite" parent="tiles stage/decorations"]
position = Vector2( 843.289, 47.6615 )
texture = ExtResource( 3 )
region_enabled = true
region_rect = Rect2( 216, 0, 64, 96 )

[node name="tree 4 7" type="Sprite" parent="tiles stage/decorations"]
position = Vector2( 781, 42 )
texture = ExtResource( 3 )
region_enabled = true
region_rect = Rect2( 216, 0, 64, 96 )

[node name="tree 4 8" type="Sprite" parent="tiles stage/decorations"]
position = Vector2( 599, 48 )
texture = ExtResource( 3 )
region_enabled = true
region_rect = Rect2( 216, 0, 64, 96 )

[node name="tree 3 2" type="Sprite" parent="tiles stage/decorations"]
position = Vector2( 727.91, 75.8737 )
texture = ExtResource( 3 )
region_enabled = true
region_rect = Rect2( 142, 0, 68, 96 )

[node name="tree 3 14" type="Sprite" parent="tiles stage/decorations"]
position = Vector2( 397.91, 62.8737 )
texture = ExtResource( 3 )
flip_h = true
region_enabled = true
region_rect = Rect2( 142, 0, 68, 96 )

[node name="tree 3 15" type="Sprite" parent="tiles stage/decorations"]
position = Vector2( 492.91, 66.8737 )
texture = ExtResource( 3 )
flip_h = true
region_enabled = true
region_rect = Rect2( 142, 0, 68, 96 )

[node name="tree 3 16" type="Sprite" parent="tiles stage/decorations"]
position = Vector2( 360.91, 89.8737 )
texture = ExtResource( 3 )
flip_h = true
region_enabled = true
region_rect = Rect2( 142, 0, 68, 96 )

[node name="tree 3 17" type="Sprite" parent="tiles stage/decorations"]
position = Vector2( 490.91, 117.874 )
texture = ExtResource( 3 )
flip_h = true
region_enabled = true
region_rect = Rect2( 142, 0, 68, 96 )

[node name="tree 3 18" type="Sprite" parent="tiles stage/decorations"]
position = Vector2( 295.91, 114.874 )
texture = ExtResource( 3 )
flip_h = true
region_enabled = true
region_rect = Rect2( 142, 0, 68, 96 )

[node name="tree 3 19" type="Sprite" parent="tiles stage/decorations"]
position = Vector2( 558.91, 126.874 )
texture = ExtResource( 3 )
flip_h = true
region_enabled = true
region_rect = Rect2( 142, 0, 68, 96 )

[node name="tree 3 27" type="Sprite" parent="tiles stage/decorations"]
position = Vector2( 422.725, 140.028 )
texture = ExtResource( 3 )
flip_h = true
region_enabled = true
region_rect = Rect2( 142, 0, 68, 96 )

[node name="tree 3 28" type="Sprite" parent="tiles stage/decorations"]
position = Vector2( 347.668, 130.743 )
texture = ExtResource( 3 )
flip_h = true
region_enabled = true
region_rect = Rect2( 142, 0, 68, 96 )

[node name="tree 3 29" type="Sprite" parent="tiles stage/decorations"]
position = Vector2( 463.735, 73.4828 )
texture = ExtResource( 3 )
flip_h = true
region_enabled = true
region_rect = Rect2( 142, 0, 68, 96 )

[node name="tree 3 4" type="Sprite" parent="tiles stage/decorations"]
position = Vector2( 526.651, 76.7763 )
texture = ExtResource( 3 )
region_enabled = true
region_rect = Rect2( 142, 0, 68, 96 )

[node name="tree 3 6" type="Sprite" parent="tiles stage/decorations"]
position = Vector2( 819.88, 70.7334 )
texture = ExtResource( 3 )
region_enabled = true
region_rect = Rect2( 142, 0, 68, 96 )

[node name="tree 3 7" type="Sprite" parent="tiles stage/decorations"]
position = Vector2( 645.663, 72.2036 )
texture = ExtResource( 3 )
region_enabled = true
region_rect = Rect2( 142, 0, 68, 96 )

[node name="tree 3 8" type="Sprite" parent="tiles stage/decorations"]
position = Vector2( 416.231, 76.7129 )
texture = ExtResource( 3 )
region_enabled = true
region_rect = Rect2( 142, 0, 68, 96 )

[node name="tree 3 20" type="Sprite" parent="tiles stage/decorations"]
position = Vector2( 453.372, 95.2836 )
texture = ExtResource( 3 )
region_enabled = true
region_rect = Rect2( 142, 0, 68, 96 )

[node name="tree 3 21" type="Sprite" parent="tiles stage/decorations"]
position = Vector2( 318.735, 134.746 )
texture = ExtResource( 3 )
region_enabled = true
region_rect = Rect2( 142, 0, 68, 96 )

[node name="tree 3 58" type="Sprite" parent="tiles stage/decorations"]
position = Vector2( 606.82, 88.5659 )
texture = ExtResource( 3 )
flip_h = true
region_enabled = true
region_rect = Rect2( 142, 0, 68, 96 )

[node name="tree 2 16" type="Sprite" parent="tiles stage/decorations"]
position = Vector2( 581.434, 45.1592 )
texture = ExtResource( 3 )
region_enabled = true
region_rect = Rect2( 64, 0, 64, 96 )

[node name="tree 3 57" type="Sprite" parent="tiles stage/decorations"]
position = Vector2( 542.293, 78.6417 )
texture = ExtResource( 3 )
region_enabled = true
region_rect = Rect2( 142, 0, 68, 96 )

[node name="tree 3 56" type="Sprite" parent="tiles stage/decorations"]
position = Vector2( 596.457, 75.5465 )
texture = ExtResource( 3 )
region_enabled = true
region_rect = Rect2( 142, 0, 68, 96 )

[node name="tree 3 55" type="Sprite" parent="tiles stage/decorations"]
position = Vector2( 702.465, 118.878 )
texture = ExtResource( 3 )
region_enabled = true
region_rect = Rect2( 142, 0, 68, 96 )

[node name="tree 3 54" type="Sprite" parent="tiles stage/decorations"]
position = Vector2( 617.349, 122.747 )
texture = ExtResource( 3 )
region_enabled = true
region_rect = Rect2( 142, 0, 68, 96 )

[node name="tree 3 53" type="Sprite" parent="tiles stage/decorations"]
position = Vector2( 642.884, 150.603 )
texture = ExtResource( 3 )
region_enabled = true
region_rect = Rect2( 142, 0, 68, 96 )

[node name="tree 3 52" type="Sprite" parent="tiles stage/decorations"]
position = Vector2( 851.175, -80.0585 )
texture = ExtResource( 3 )
region_enabled = true
region_rect = Rect2( 142, 0, 68, 96 )

[node name="tree 3 51" type="Sprite" parent="tiles stage/decorations"]
position = Vector2( 1597.55, -80.0584 )
texture = ExtResource( 3 )
region_enabled = true
region_rect = Rect2( 142, 0, 68, 96 )

[node name="tree 3 50" type="Sprite" parent="tiles stage/decorations"]
position = Vector2( 2037.07, -82.766 )
texture = ExtResource( 3 )
region_enabled = true
region_rect = Rect2( 142, 0, 68, 96 )

[node name="tree 3 49" type="Sprite" parent="tiles stage/decorations"]
position = Vector2( 2278.04, -79.1559 )
texture = ExtResource( 3 )
region_enabled = true
region_rect = Rect2( 142, 0, 68, 96 )

[node name="tree 3 48" type="Sprite" parent="tiles stage/decorations"]
position = Vector2( 2365.58, -83.6685 )
texture = ExtResource( 3 )
region_enabled = true
region_rect = Rect2( 142, 0, 68, 96 )

[node name="tree 4 2" type="Sprite" parent="tiles stage/decorations"]
position = Vector2( 855.106, 46.8336 )
texture = ExtResource( 3 )
region_enabled = true
region_rect = Rect2( 216, 0, 64, 96 )

[node name="tree 1 27" type="Sprite" parent="tiles stage/decorations"]
position = Vector2( 2669.62, 47.9495 )
texture = ExtResource( 3 )
region_enabled = true
region_rect = Rect2( 0, 0, 64, 96 )

[node name="tree 1 36" type="Sprite" parent="tiles stage/decorations"]
position = Vector2( 2757.16, 43.437 )
texture = ExtResource( 3 )
region_enabled = true
region_rect = Rect2( 0, 0, 64, 96 )

[node name="tree 1 35" type="Sprite" parent="tiles stage/decorations"]
position = Vector2( 2696.15, 42.702 )
texture = ExtResource( 3 )
region_enabled = true
region_rect = Rect2( 0, 0, 64, 96 )

[node name="tree 1 13" type="Sprite" parent="tiles stage/decorations"]
position = Vector2( 1125.88, 46.312 )
texture = ExtResource( 3 )
region_enabled = true
region_rect = Rect2( 0, 0, 64, 96 )

[node name="tree 1 12" type="Sprite" parent="tiles stage/decorations"]
position = Vector2( 920.106, 46.8336 )
texture = ExtResource( 3 )
region_enabled = true
region_rect = Rect2( 0, 0, 64, 96 )

[node name="tree 1 11" type="Sprite" parent="tiles stage/decorations"]
position = Vector2( 748.106, 45.8336 )
texture = ExtResource( 3 )
region_enabled = true
region_rect = Rect2( 0, 0, 64, 96 )

[node name="tree 1 10" type="Sprite" parent="tiles stage/decorations"]
position = Vector2( 647.419, 47.5686 )
texture = ExtResource( 3 )
region_enabled = true
region_rect = Rect2( 0, 0, 64, 96 )

[node name="tree 3 47" type="Sprite" parent="tiles stage/decorations"]
position = Vector2( 585.928, 110.232 )
texture = ExtResource( 3 )
flip_h = true
region_enabled = true
region_rect = Rect2( 142, 0, 68, 96 )

[node name="tree 3 46" type="Sprite" parent="tiles stage/decorations"]
position = Vector2( 669.496, 130.35 )
texture = ExtResource( 3 )
flip_h = true
region_enabled = true
region_rect = Rect2( 142, 0, 68, 96 )

[node name="tree 1 9" type="Sprite" parent="tiles stage/decorations"]
position = Vector2( 617.106, 45.8336 )
texture = ExtResource( 3 )
region_enabled = true
region_rect = Rect2( 0, 0, 64, 96 )

[node name="tree 2 15" type="Sprite" parent="tiles stage/decorations"]
position = Vector2( 1088.76, 46.2901 )
texture = ExtResource( 3 )
region_enabled = true
region_rect = Rect2( 64, 0, 64, 96 )

[node name="tree 2 14" type="Sprite" parent="tiles stage/decorations"]
position = Vector2( 954.973, 45.5551 )
texture = ExtResource( 3 )
region_enabled = true
region_rect = Rect2( 64, 0, 64, 96 )

[node name="tree 2 13" type="Sprite" parent="tiles stage/decorations"]
position = Vector2( 1021.87, 45.5551 )
texture = ExtResource( 3 )
region_enabled = true
region_rect = Rect2( 64, 0, 64, 96 )

[node name="tree 2 12" type="Sprite" parent="tiles stage/decorations"]
position = Vector2( 879.106, 46.8336 )
texture = ExtResource( 3 )
region_enabled = true
region_rect = Rect2( 64, 0, 64, 96 )

[node name="tree 2 11" type="Sprite" parent="tiles stage/decorations"]
position = Vector2( 781.662, 43.6133 )
texture = ExtResource( 3 )
region_enabled = true
region_rect = Rect2( 64, 0, 64, 96 )

[node name="tree 2 10" type="Sprite" parent="tiles stage/decorations"]
position = Vector2( 702.106, 45.8336 )
texture = ExtResource( 3 )
region_enabled = true
region_rect = Rect2( 64, 0, 64, 96 )

[node name="tree 2 9" type="Sprite" parent="tiles stage/decorations"]
position = Vector2( 671.165, 42.3857 )
texture = ExtResource( 3 )
region_enabled = true
region_rect = Rect2( 64, 0, 64, 96 )

[node name="tree 4 27" type="Sprite" parent="tiles stage/decorations"]
position = Vector2( 2704.02, 46.6626 )
texture = ExtResource( 3 )
region_enabled = true
region_rect = Rect2( 216, 0, 64, 96 )

[node name="tree 4 35" type="Sprite" parent="tiles stage/decorations"]
position = Vector2( 2791.57, 42.15 )
texture = ExtResource( 3 )
region_enabled = true
region_rect = Rect2( 216, 0, 64, 96 )

[node name="tree 4 25" type="Sprite" parent="tiles stage/decorations"]
position = Vector2( 2645.95, 47.3976 )
texture = ExtResource( 3 )
region_enabled = true
region_rect = Rect2( 216, 0, 64, 96 )

[node name="tree 4 34" type="Sprite" parent="tiles stage/decorations"]
position = Vector2( 2733.49, 42.8851 )
texture = ExtResource( 3 )
region_enabled = true
region_rect = Rect2( 216, 0, 64, 96 )

[node name="tree 4 32" type="Sprite" parent="tiles stage/decorations"]
position = Vector2( 2677.63, 43.6202 )
texture = ExtResource( 3 )
region_enabled = true
region_rect = Rect2( 216, 0, 64, 96 )

[node name="tree 4 11" type="Sprite" parent="tiles stage/decorations"]
position = Vector2( 1068.39, 46.4951 )
texture = ExtResource( 3 )
region_enabled = true
region_rect = Rect2( 216, 0, 64, 96 )

[node name="tree 4 10" type="Sprite" parent="tiles stage/decorations"]
position = Vector2( 1006.11, 40.8336 )
texture = ExtResource( 3 )
region_enabled = true
region_rect = Rect2( 216, 0, 64, 96 )

[node name="tree 4 9" type="Sprite" parent="tiles stage/decorations"]
position = Vector2( 824.106, 46.8336 )
texture = ExtResource( 3 )
region_enabled = true
region_rect = Rect2( 216, 0, 64, 96 )

[node name="tree 3 3" type="Sprite" parent="tiles stage/decorations"]
position = Vector2( 953.016, 74.7074 )
texture = ExtResource( 3 )
region_enabled = true
region_rect = Rect2( 142, 0, 68, 96 )

[node name="tree 3 45" type="Sprite" parent="tiles stage/decorations"]
position = Vector2( 623.016, 61.7074 )
texture = ExtResource( 3 )
flip_h = true
region_enabled = true
region_rect = Rect2( 142, 0, 68, 96 )

[node name="tree 3 44" type="Sprite" parent="tiles stage/decorations"]
position = Vector2( 718.016, 65.7074 )
texture = ExtResource( 3 )
flip_h = true
region_enabled = true
region_rect = Rect2( 142, 0, 68, 96 )

[node name="tree 3 43" type="Sprite" parent="tiles stage/decorations"]
position = Vector2( 586.016, 88.7074 )
texture = ExtResource( 3 )
flip_h = true
region_enabled = true
region_rect = Rect2( 142, 0, 68, 96 )

[node name="tree 3 42" type="Sprite" parent="tiles stage/decorations"]
position = Vector2( 716.016, 116.707 )
texture = ExtResource( 3 )
flip_h = true
region_enabled = true
region_rect = Rect2( 142, 0, 68, 96 )

[node name="tree 3 41" type="Sprite" parent="tiles stage/decorations"]
position = Vector2( 521.016, 113.707 )
texture = ExtResource( 3 )
flip_h = true
region_enabled = true
region_rect = Rect2( 142, 0, 68, 96 )

[node name="tree 3 40" type="Sprite" parent="tiles stage/decorations"]
position = Vector2( 784.016, 125.707 )
texture = ExtResource( 3 )
flip_h = true
region_enabled = true
region_rect = Rect2( 142, 0, 68, 96 )

[node name="tree 3 39" type="Sprite" parent="tiles stage/decorations"]
position = Vector2( 647.83, 138.862 )
texture = ExtResource( 3 )
flip_h = true
region_enabled = true
region_rect = Rect2( 142, 0, 68, 96 )

[node name="tree 3 38" type="Sprite" parent="tiles stage/decorations"]
position = Vector2( 572.773, 129.576 )
texture = ExtResource( 3 )
flip_h = true
region_enabled = true
region_rect = Rect2( 142, 0, 68, 96 )

[node name="tree 3 37" type="Sprite" parent="tiles stage/decorations"]
position = Vector2( 688.841, 72.3165 )
texture = ExtResource( 3 )
flip_h = true
region_enabled = true
region_rect = Rect2( 142, 0, 68, 96 )

[node name="tree 3 5" type="Sprite" parent="tiles stage/decorations"]
position = Vector2( 751.757, 75.6099 )
texture = ExtResource( 3 )
region_enabled = true
region_rect = Rect2( 142, 0, 68, 96 )

[node name="tree 3 36" type="Sprite" parent="tiles stage/decorations"]
position = Vector2( 1044.99, 69.567 )
texture = ExtResource( 3 )
region_enabled = true
region_rect = Rect2( 142, 0, 68, 96 )

[node name="tree 3 35" type="Sprite" parent="tiles stage/decorations"]
position = Vector2( 870.769, 71.0372 )
texture = ExtResource( 3 )
region_enabled = true
region_rect = Rect2( 142, 0, 68, 96 )

[node name="tree 3 13" type="Sprite" parent="tiles stage/decorations"]
position = Vector2( 641.337, 75.5465 )
texture = ExtResource( 3 )
region_enabled = true
region_rect = Rect2( 142, 0, 68, 96 )

[node name="tree 3 34" type="Sprite" parent="tiles stage/decorations"]
position = Vector2( 678.478, 94.1173 )
texture = ExtResource( 3 )
region_enabled = true
region_rect = Rect2( 142, 0, 68, 96 )

[node name="tree 3 33" type="Sprite" parent="tiles stage/decorations"]
position = Vector2( 543.84, 133.58 )
texture = ExtResource( 3 )
region_enabled = true
region_rect = Rect2( 142, 0, 68, 96 )

[node name="tile level" type="TileMap" parent="tiles stage"]
position = Vector2( 0, 4 )
tile_set = ExtResource( 1 )
cell_size = Vector2( 16, 16 )
cell_custom_transform = Transform2D( 1, 0, 0, 1, 0, 0 )
collision_layer = 4
collision_mask = 4
format = 1
tile_data = PoolIntArray( -720778, 2, 0, -720777, 536870912, 0, -720776, 536870914, 0, -720773, 2, 0, -720772, 536870912, 0, -720771, 536870914, 0, -655242, -1073741824, 0, -655241, 1610612737, 0, -655240, -1610612736, 0, -655237, -1073741824, 0, -655236, 1610612737, 0, -655235, -1610612736, 0, -589706, -1073741822, 0, -589705, 1073741824, 0, -589704, 1610612738, 0, -589701, -1073741822, 0, -589700, 1073741824, 0, -589699, 1610612738, 0, -524157, 2, 0, -524156, 536870912, 0, -524155, 536870914, 0, -458621, -1073741824, 0, -458620, 1610612737, 0, -458619, -1610612736, 0, -393099, 2, 0, -393098, 536870912, 0, -393097, 536870914, 0, -393091, 2, 0, -393090, 536870912, 0, -393089, 536870914, 0, -393085, -1073741822, 0, -393084, 1073741824, 0, -393083, 1610612738, 0, -327563, -1073741824, 0, -327562, 1610612737, 0, -327561, -1610612736, 0, -327555, -1073741824, 0, -327554, 1610612737, 0, -327553, -1610612736, 0, -262027, -1073741822, 0, -262026, 1073741824, 0, -262025, 1610612738, 0, -262019, -1073741822, 0, -262018, 1073741824, 0, -262017, 1610612738, 0, 117, 2, 0, 118, 536870912, 0, 119, 536870914, 0, 127, 2, 0, 128, 536870912, 0, 129, 536870914, 0, 65653, -1073741824, 0, 65654, 1610612737, 0, 65655, -1610612736, 0, 65663, -1073741824, 0, 65664, 1610612737, 0, 65665, -1610612736, 0, 131189, -1073741822, 0, 131190, 1073741824, 0, 131191, 1610612738, 0, 131199, -1073741822, 0, 131200, 1073741824, 0, 131201, 1610612738, 0, 196646, 2, 0, 196647, 536870912, 0, 196648, 536870912, 0, 196649, 536870912, 0, 196650, 536870912, 0, 196651, 536870912, 0, 196652, 536870912, 0, 196719, 2, 0, 196720, 536870912, 0, 196721, 536870914, 0, 196730, 2, 0, 196731, 536870912, 0, 196732, 536870914, 0, 196743, 2, 0, 196744, 536870912, 0, 196745, 536870914, 0, 262154, 536870917, 0, 262155, 536870917, 0, 262156, 536870917, 0, 262157, 536870917, 0, 262158, 536870917, 0, 262159, 0, 0, 262160, 0, 0, 262161, 0, 0, 262162, 536870914, 0, 262182, -1073741822, 0, 262183, 1073741824, 0, 262184, 1, 0, 262185, 1, 0, 262186, 1, 0, 262187, 1, 0, 262188, 1, 0, 262255, -1073741824, 0, 262256, 1610612737, 0, 262257, -1610612736, 0, 262266, -1073741824, 0, 262267, 1610612737, 0, 262268, -1610612736, 0, 262279, -1073741824, 0, 262280, 1610612737, 0, 262281, -1610612736, 0, 327687, 536870917, 0, 327688, 536870917, 0, 327689, 536870917, 0, 327690, 536870917, 0, 327691, 536870917, 0, 327692, 536870917, 0, 327693, 536870917, 0, 327694, 536870917, 0, 327695, 1073741830, 0, 327696, 1073741830, 0, 327697, 1073741830, 0, 327698, 1073741830, 0, 327699, 536870912, 0, 327700, 536870912, 0, 327701, 536870912, 0, 327702, 536870914, 0, 327720, -1073741822, 0, 327721, 1, 0, 327722, 1, 0, 327723, 1, 0, 327724, 1, 0, 327786, 2, 0, 327787, 536870912, 0, 327788, 536870914, 0, 327791, -1073741822, 0, 327792, 1073741824, 0, 327793, 1610612738, 0, 327796, 2, 0, 327797, 536870912, 0, 327798, 536870914, 0, 327802, -1073741822, 0, 327803, 1073741824, 0, 327804, 1610612738, 0, 327809, 2, 0, 327810, 536870912, 0, 327811, 536870914, 0, 327815, -1073741822, 0, 327816, 1073741824, 0, 327817, 1610612738, 0, 393222, 536870917, 0, 393223, 536870917, 0, 393224, 536870917, 0, 393225, 536870917, 0, 393226, 536870917, 0, 393227, 536870917, 0, 393228, 536870917, 0, 393229, 536870917, 0, 393230, 536870917, 0, 393231, 536870917, 0, 393232, 1073741830, 0, 393233, 1073741830, 0, 393234, 1073741830, 0, 393235, 1073741830, 0, 393236, 1073741830, 0, 393237, 1, 0, 393238, 1, 0, 393257, 1, 0, 393258, 1, 0, 393259, 1, 0, 393260, 1, 0, 393264, 1, 0, 393297, 2, 0, 393298, 0, 0, 393299, 0, 0, 393300, 0, 0, 393301, 0, 0, 393302, 536870912, 0, 393303, 536870912, 0, 393304, 536870912, 0, 393305, 536870912, 0, 393306, 536870914, 0, 393320, 2, 0, 393321, 536870912, 0, 393322, 1610612737, 0, 393323, 1610612737, 0, 393324, -1610612736, 0, 393332, -1073741824, 0, 393333, 1610612737, 0, 393334, -1610612736, 0, 393345, -1073741824, 0, 393346, 1610612737, 0, 393347, -1610612736, 0, 458757, 536870917, 0, 458758, 536870917, 0, 458759, 536870917, 0, 458760, 536870917, 0, 458761, 536870917, 0, 458762, 536870917, 0, 458763, 536870917, 0, 458764, 536870917, 0, 458765, 536870917, 0, 458766, 536870917, 0, 458767, 536870917, 0, 458768, 536870917, 0, 458769, 536870917, 0, 458770, 1073741830, 0, 458771, 1073741830, 0, 458772, 1, 0, 458773, 1, 0, 458774, 1, 0, 458793, 1, 0, 458794, 1, 0, 458795, 1, 0, 458796, 1, 0, 458799, 1, 0, 458800, 1, 0, 458831, 2, 0, 458832, 0, 0, 458833, 5, 0, 458834, 5, 0, 458835, 5, 0, 458836, 5, 0, 458837, 5, 0, 458838, 5, 0, 458839, 5, 0, 458840, 5, 0, 458841, 5, 0, 458842, 5, 0, 458843, 536870912, 0, 458844, 536870912, 0, 458845, 536870912, 0, 458846, 536870912, 0, 458847, 536870914, 0, 458856, -1073741824, 0, 458857, 1610612737, 0, 458858, 1610612737, 0, 458859, 1073741824, 0, 458860, 1610612738, 0, 458868, -1073741822, 0, 458869, 1073741824, 0, 458870, 1610612738, 0, 458881, -1073741822, 0, 458882, 1073741824, 0, 458883, 1610612738, 0, 589823, 536870919, 0, 524288, 536870919, 0, 524289, 536870919, 0, 524290, 536870919, 0, 524291, 536870919, 0, 524292, 4, 0, 524293, 1, 0, 524294, 536870917, 0, 524295, 536870917, 0, 524296, 536870917, 0, 524297, 536870917, 0, 524298, 536870917, 0, 524299, 536870917, 0, 524300, 536870917, 0, 524301, 536870917, 0, 524302, 536870917, 0, 524303, 536870917, 0, 524304, 536870917, 0, 524305, 536870917, 0, 524306, 536870917, 0, 524307, 1073741830, 0, 524308, 1073741830, 0, 524309, 1073741830, 0, 524310, 1, 0, 524329, 1, 0, 524330, 1, 0, 524331, 1, 0, 524332, 1, 0, 524333, 1, 0, 524334, 1, 0, 524335, 1, 0, 524336, 1, 0, 524337, 1, 0, 524356, 2, 0, 524357, 0, 0, 524358, 0, 0, 524359, 0, 0, 524360, 0, 0, 524361, 0, 0, 524362, 0, 0, 524363, 0, 0, 524364, 0, 0, 524365, 0, 0, 524366, 0, 0, 524367, 5, 0, 524368, 5, 0, 524369, 5, 0, 524370, 5, 0, 524371, 5, 0, 524372, 5, 0, 524373, 5, 0, 524374, 5, 0, 524375, 5, 0, 524376, 5, 0, 524377, 5, 0, 524378, 5, 0, 524379, 5, 0, 524380, 5, 0, 524381, 5, 0, 524382, 5, 0, 524383, 5, 0, 524384, 536870914, 0, 524392, -1073741822, 0, 524393, 1073741824, 0, 524394, 1610612738, 0, 524411, 2, 0, 524412, 536870912, 0, 524413, 536870914, 0, 655359, 536870915, 0, 589824, 536870915, 0, 589825, 536870915, 0, 589826, 536870915, 0, 589827, 536870915, 0, 589828, 5, 0, 589829, 5, 0, 589830, 5, 0, 589831, 5, 0, 589832, 5, 0, 589833, 5, 0, 589834, 5, 0, 589835, 536870917, 0, 589836, 536870917, 0, 589837, 536870917, 0, 589838, 536870917, 0, 589839, 536870917, 0, 589840, 5, 0, 589841, 536870917, 0, 589842, 536870917, 0, 589843, 536870917, 0, 589844, 1073741830, 0, 589845, 1073741830, 0, 589846, 1073741830, 0, 589847, 536870914, 0, 589864, 2, 0, 589865, 1, 0, 589866, 1, 0, 589867, 1, 0, 589868, 1, 0, 589869, 1, 0, 589870, 1, 0, 589871, 1, 0, 589872, 1, 0, 589873, 1, 0, 589874, 0, 0, 589875, 0, 0, 589876, 0, 0, 589877, 0, 0, 589878, 0, 0, 589879, 0, 0, 589880, 0, 0, 589881, 0, 0, 589882, 0, 0, 589883, 0, 0, 589884, 0, 0, 589885, 0, 0, 589886, 0, 0, 589887, 0, 0, 589888, 0, 0, 589889, 0, 0, 589890, 0, 0, 589891, 0, 0, 589892, 5, 0, 589893, 5, 0, 589894, 5, 0, 589895, 5, 0, 589896, 5, 0, 589897, 5, 0, 589898, 5, 0, 589899, 5, 0, 589900, 5, 0, 589901, 5, 0, 589902, 5, 0, 589903, 5, 0, 589904, 5, 0, 589905, 5, 0, 589906, 5, 0, 589907, 5, 0, 589908, 5, 0, 589909, 5, 0, 589910, 5, 0, 589911, 5, 0, 589912, 5, 0, 589913, 5, 0, 589914, 5, 0, 589915, 5, 0, 589916, 5, 0, 589917, 5, 0, 589918, 5, 0, 589919, 5, 0, 589920, 5, 0, 589921, 536870914, 0, 589947, -1073741824, 0, 589948, 1610612737, 0, 589949, -1610612736, 0, 720888, 0, 0, 720889, 0, 0, 720890, 0, 0, 720891, 0, 0, 720895, 536870917, 0, 655360, 536870917, 0, 655361, 536870917, 0, 655362, 536870917, 0, 655363, 536870917, 0, 655364, 536870917, 0, 655365, 536870917, 0, 655366, 536870917, 0, 655367, 536870917, 0, 655368, 536870917, 0, 655369, 536870917, 0, 655370, 536870917, 0, 655371, 536870917, 0, 655372, 536870917, 0, 655373, 536870917, 0, 655374, 536870917, 0, 655375, 536870917, 0, 655376, 536870917, 0, 655377, 536870917, 0, 655378, 536870917, 0, 655379, 536870917, 0, 655380, 536870917, 0, 655381, 536870917, 0, 655382, 536870917, 0, 655383, 536870917, 0, 655384, 536870912, 0, 655385, 536870912, 0, 655386, 536870912, 0, 655387, 536870912, 0, 655388, 536870912, 0, 655389, 536870912, 0, 655390, 536870912, 0, 655391, 536870912, 0, 655392, 536870912, 0, 655393, 536870912, 0, 655394, 536870912, 0, 655395, 536870912, 0, 655396, 1, 0, 655397, 1, 0, 655398, 1, 0, 655399, 1, 0, 655400, 1, 0, 655401, 1, 0, 655402, 1, 0, 655403, 1, 0, 655404, 1, 0, 655405, 536870917, 0, 655406, 536870917, 0, 655407, 536870917, 0, 655408, 536870917, 0, 655409, 536870917, 0, 655410, 536870917, 0, 655411, 536870917, 0, 655412, 536870917, 0, 655413, 536870917, 0, 655414, 536870917, 0, 655415, 536870917, 0, 655416, 536870917, 0, 655417, 536870917, 0, 655418, 536870917, 0, 655419, 536870917, 0, 655420, 536870917, 0, 655421, 536870917, 0, 655422, 536870917, 0, 655423, 536870917, 0, 655424, 536870917, 0, 655425, 536870917, 0, 655426, 536870917, 0, 655427, 536870917, 0, 655428, 536870917, 0, 655429, 536870917, 0, 655430, 536870917, 0, 655431, 536870917, 0, 655432, 536870917, 0, 655433, 536870917, 0, 655434, 536870917, 0, 655435, 536870917, 0, 655436, 536870917, 0, 655437, 536870917, 0, 655438, 536870917, 0, 655439, 536870917, 0, 655440, 536870917, 0, 655441, 536870917, 0, 655442, 536870917, 0, 655443, 536870917, 0, 655444, 536870917, 0, 655445, 536870917, 0, 655446, 536870917, 0, 655447, 536870917, 0, 655448, 536870917, 0, 655449, 536870917, 0, 655450, 536870917, 0, 655451, 536870917, 0, 655452, 536870917, 0, 655453, 536870917, 0, 655454, 536870917, 0, 655455, 536870917, 0, 655456, 536870917, 0, 655457, 536870917, 0, 655458, 536870917, 0, 655459, 536870917, 0, 655460, 536870917, 0, 655461, 536870917, 0, 655462, 536870917, 0, 655463, 536870917, 0, 655464, 536870917, 0, 655465, 536870917, 0, 655466, 536870917, 0, 655467, 536870917, 0, 655468, 536870917, 0, 655469, 536870917, 0, 655470, 536870917, 0, 655471, 536870917, 0, 655472, 536870917, 0, 655473, 536870917, 0, 655474, 536870917, 0, 655475, 536870917, 0, 655476, 536870917, 0, 655477, 536870917, 0, 655478, 536870917, 0, 655479, 536870917, 0, 655480, 536870917, 0, 655481, 536870917, 0, 655482, 536870917, 0, 655483, 536870917, 0, 655484, 536870917, 0, 655485, 536870917, 0, 655486, 536870917, 0, 655487, 536870917, 0, 655488, 536870917, 0, 655489, 536870917, 0, 655490, 536870917, 0, 655491, 536870917, 0, 655492, 536870917, 0, 655493, 536870917, 0, 655494, 536870917, 0, 655495, 536870917, 0, 655496, 536870917, 0, 655497, 536870917, 0, 655498, 536870917, 0, 655499, 536870917, 0, 655500, 536870917, 0, 655501, 536870917, 0, 655502, 536870917, 0, 655503, 536870917, 0, 655504, 536870917, 0, 655505, 536870917, 0, 655506, 536870917, 0, 655507, 536870917, 0, 655508, 536870917, 0, 655509, 536870917, 0, 655510, 536870917, 0, 655511, 536870917, 0, 655512, 536870917, 0, 655513, 536870917, 0, 655514, 536870917, 0, 655515, 536870917, 0, 655516, 536870917, 0, 655517, 536870917, 0, 655518, 536870917, 0, 655519, 536870917, 0, 720913, 536870917, 0, 720914, 536870917, 0, 720915, 536870917, 0, 720916, 536870917, 0, 720917, 536870917, 0, 720918, 536870917, 0, 720919, 536870917, 0, 720920, 536870917, 0, 720921, 536870917, 0, 720922, 536870917, 0, 720923, 536870917, 0, 720924, 536870917, 0, 720925, 536870917, 0, 720926, 536870917, 0, 720927, 536870917, 0, 720928, 536870917, 0, 720929, 536870917, 0, 720930, 536870917, 0, 720931, 536870917, 0, 720932, 536870917, 0, 720933, 536870917, 0, 720934, 536870917, 0, 720935, 536870917, 0, 720936, 1, 0, 720937, 536870917, 0, 720938, 1, 0, 720939, 1, 0, 720940, 536870917, 0, 720941, 536870917, 0, 720942, 536870917, 0, 720943, 536870917, 0, 786451, 536870917, 0, 786452, 536870917, 0, 786453, 536870917, 0, 786454, 536870917, 0, 786455, 536870917, 0, 786456, 536870917, 0, 786457, 536870917, 0, 786458, 536870917, 0, 786459, 536870917, 0, 786460, 536870917, 0, 786461, 536870917, 0, 786462, 536870917, 0, 786463, 536870917, 0, 786464, 536870917, 0, 786465, 536870917, 0, 786466, 536870917, 0, 786467, 536870917, 0, 786468, 536870917, 0, 786469, 536870917, 0, 786470, 536870917, 0, 786471, 536870917, 0, 786472, 536870917, 0, 786473, 536870917, 0, 786474, 1, 0, 786475, 536870917, 0, 786476, 536870917, 0, 786477, 536870917, 0, 786478, 536870917, 0 )
__meta__ = {
"_edit_lock_": true
}

[node name="sprites" type="Node2D" parent="."]

[node name="player" parent="sprites" instance=ExtResource( 4 )]
position = Vector2( 414.135, 18.9265 )
script = ExtResource( 5 )

[node name="big tiktaalik" parent="sprites" instance=ExtResource( 6 )]
position = Vector2( 528, 156 )

[node name="mate tiktaalik" parent="sprites" instance=ExtResource( 8 )]
position = Vector2( 652.542, 46.3017 )

[node name="tiles foreground" type="Node2D" parent="."]
__meta__ = {
"_edit_lock_": true
}

[node name="decorations" type="Node2D" parent="."]
visible = false
__meta__ = {
"_edit_lock_": true
}

[node name="coral2" type="Sprite" parent="decorations"]
position = Vector2( 78.6313, 137.247 )
texture = ExtResource( 7 )

[node name="coral3" type="Sprite" parent="decorations"]
position = Vector2( 355.7, 152.589 )
texture = ExtResource( 7 )

[node name="coral4" type="Sprite" parent="decorations"]
position = Vector2( 600.924, 154.437 )
texture = ExtResource( 7 )

[node name="coral6" type="Sprite" parent="decorations"]
position = Vector2( 225.483, 152.632 )
texture = ExtResource( 7 )

[node name="coral5" type="Sprite" parent="decorations"]
position = Vector2( -97.8442, 160.187 )
texture = ExtResource( 7 )

[node name="background" type="ParallaxBackground" parent="."]
layer = -1
scroll_ignore_camera_zoom = true

[node name="ParallaxLayer" type="ParallaxLayer" parent="background"]

[node name="triggers" type="Node2D" parent="."]

[node name="water trigger" parent="triggers" instance=ExtResource( 9 )]
position = Vector2( -25.5525, 137.361 )

[node name="land trigger" parent="triggers" instance=ExtResource( 9 )]
position = Vector2( 74.4212, 103.712 )
environment_type = "land"

[node name="land trigger2" parent="triggers" instance=ExtResource( 9 )]
position = Vector2( 158.789, 51.0426 )
environment_type = "land"

[node name="camera" type="Camera2D" parent="."]
position = Vector2( 513, 91 )
current = true
drag_margin_h_enabled = true
drag_margin_v_enabled = true
